Foundations of Data Science in R - 3 Data Wrangling
…
starwars %>% 
  dplyr::filter(species != "Droid") %>%
  mosaic::favstats(mass~gender, data = .)

     gender min Q1 median   Q3  max      mean         sd  n missing
1  feminine  45 50     55 56.2   75  54.68889   8.591921  9       7
2 masculine  15 76     80 87.5 1358 109.93488 196.887934 43      18

starwars %>% 
  dplyr::select(name, ends_with("color"))

# A tibble: 87 × 4
   name               hair_color    skin_color  eye_color
   <chr>              <chr>         <chr>       <chr>    
 1 Luke Skywalker     blond         fair        blue     
 2 C-3PO              <NA>          gold        yellow   
 3 R2-D2              <NA>          white, blue red      
 4 Darth Vader        none          white       yellow   
 5 Leia Organa        brown         light       brown    
 6 Owen Lars          brown, grey   light       blue     
 7 Beru Whitesun Lars brown         light       blue     
 8 R5-D4              <NA>          white, red  red      
 9 Biggs Darklighter  black         light       brown    
10 Obi-Wan Kenobi     auburn, white fair        blue-gray
# ℹ 77 more rows

starwars %>% 
  dplyr::mutate(name, bmi = mass / ((height / 100)  ^ 2)) %>%
  dplyr::select(name:mass, bmi)

# A tibble: 87 × 4
   name               height  mass   bmi
   <chr>               <int> <dbl> <dbl>
 1 Luke Skywalker        172    77  26.0
 2 C-3PO                 167    75  26.9
 3 R2-D2                  96    32  34.7
 4 Darth Vader           202   136  33.3
 5 Leia Organa           150    49  21.8
 6 Owen Lars             178   120  37.9
 7 Beru Whitesun Lars    165    75  27.5
 8 R5-D4                  97    32  34.0
 9 Biggs Darklighter     183    84  25.1
10 Obi-Wan Kenobi        182    77  23.2
# ℹ 77 more rows

starwars %>% 
  dplyr::arrange(desc(mass))

# A tibble: 87 × 14
   name     height  mass hair_color skin_color eye_color birth_year sex   gender
   <chr>     <int> <dbl> <chr>      <chr>      <chr>          <dbl> <chr> <chr> 
 1 Jabba D…    175  1358 <NA>       green-tan… orange         600   herm… mascu…
 2 Grievous    216   159 none       brown, wh… green, y…       NA   male  mascu…
 3 IG-88       200   140 none       metal      red             15   none  mascu…
 4 Darth V…    202   136 none       white      yellow          41.9 male  mascu…
 5 Tarfful     234   136 brown      brown      blue            NA   male  mascu…
 6 Owen La…    178   120 brown, gr… light      blue            52   male  mascu…
 7 Bossk       190   113 none       green      red             53   male  mascu…
 8 Chewbac…    228   112 brown      unknown    blue           200   male  mascu…
 9 Jek Ton…    180   110 brown      fair       blue            NA   <NA>  <NA>  
10 Dexter …    198   102 none       brown      yellow          NA   male  mascu…
# ℹ 77 more rows
# ℹ 5 more variables: homeworld <chr>, species <chr>, films <list>,
#   vehicles <list>, starships <list>
…
3.4.2 pivot_wider

library(babynames)
babynames %>% dplyr::select(-prop) %>%
   tidyr::pivot_wider(names_from = sex, values_from = n) 

# A tibble: 1,756,284 × 4
    year name          F     M
   <dbl> <chr>     <int> <int>
 1  1880 Mary       7065    27
 2  1880 Anna       2604    12
 3  1880 Emma       2003    10
 4  1880 Elizabeth  1939     9
 5  1880 Minnie     1746     9
 6  1880 Margaret   1578    NA
 7  1880 Ida        1472     8
 8  1880 Alice      1414    NA
 9  1880 Bertha     1320    NA
10  1880 Sarah      1288    NA
# ℹ 1,756,274 more rows

babynames %>% 
  select(-prop) %>% 
  pivot_wider(names_from = sex, values_from = n) %>%
  filter(!is.na(F) & !is.na(M)) %>%
  arrange(desc(year), desc(M))

# A tibble: 168,381 × 4
    year name         F     M
   <dbl> <chr>    <int> <int>
 1  2017 Liam        36 18728
 2  2017 Noah       170 18326
 3  2017 William     18 14904
 4  2017 James       77 14232
 5  2017 Logan     1103 13974
 6  2017 Benjamin     8 13733
 7  2017 Mason       58 13502
 8  2017 Elijah      26 13268
 9  2017 Oliver      15 13141
10  2017 Jacob       16 13106
# ℹ 168,371 more rows
…
