…
```r
reps <- 1000
results <- map_df(1:reps, ~map2(nsamp_try, npop_try, calculate_N))

# making the results long instead of wide:
results_long <- results %>%
  pivot_longer(cols = xbar2:diff.min.max, names_to = "estimator", values_to = "estimate")

# how is results different from results_long?  let's look at it:
results_long
```

```
## # A tibble: 24,000 × 4
##    nsamp  npop estimator    estimate
##    <dbl> <dbl> <chr>           <dbl>
##  1    10   147 xbar2            114.
##  2    10   147 median2           64 
##  3    10   147 samp.max         145 
##  4    10   147 mod.max          160.
##  5    10   147 sum.min.max      148 
##  6    10   147 diff.min.max     174.
##  7   100   147 xbar2            146.
##  8   100   147 median2          143 
##  9   100   147 samp.max         147 
## 10   100   147 mod.max          148.
## # … with 23,990 more rows
## # ℹ Use `print(n = ...)` to see more rows
```

```r
results_long %>%
  group_by(nsamp, npop, estimator) %>%
  summarize(mean = mean(estimate), median = median(estimate), bias = mean(estimate - npop),
            var = var(estimate), mse = (mean(estimate - npop))^2 + var(estimate))
```

```
## `summarise()` has grouped output by 'nsamp', 'npop'. You can override using the
## `.groups` argument.
```

```
## # A tibble: 24 × 8
## # Groups:   nsamp, npop [4]
##    nsamp  npop estimator     mean median    bias    var    mse
##    <dbl> <dbl> <chr>        <dbl>  <dbl>   <dbl>  <dbl>  <dbl>
##  1    10   147 diff.min.max  147.   150.   0.261   382.   382.
##  2    10   147 median2       146.   146   -0.638  1436.  1437.
##  3    10   147 mod.max       148.   152.   0.734   181.   181.
##  4    10   147 samp.max      134.   138  -12.7     149.   310.
##  5    10   147 sum.min.max   148.   148    1.12    358.   360.
##  6    10   147 xbar2         147.   147.  -0.127   674.   674.
##  7    10   447 diff.min.max  450.   460.   3.26   3620.  3631.
##  8    10   447 median2       446.   444   -0.504 14574. 14575.
##  9    10   447 mod.max       449.   460.   1.94   1573.  1576.
## 10    10   447 samp.max      408.   418  -38.9    1300.  2811.
## # … with 14 more rows
## # ℹ Use `print(n = ...)` to see more rows
```
…
