Chapter 4 Sampling Distributions of Estimators | Statistical Theory
…
reps <- 1000
results <- map_df(1:reps, ~map2(nsamp_try, npop_try, calculate_N))

# making the results long instead of wide:
results_long <- results %>%
  pivot_longer(cols = xbar2:diff.min.max, names_to = "estimator", values_to = "estimate")

# how is results different from results_long?  let's look at it:
results_long

## # A tibble: 24,000 × 4
##    nsamp  npop estimator    estimate
##    <dbl> <dbl> <chr>           <dbl>
##  1    10   147 xbar2            132.
##  2    10   147 median2          117 
##  3    10   147 samp.max         133 
##  4    10   147 mod.max          146.
##  5    10   147 sum.min.max      136 
##  6    10   147 diff.min.max     159.
##  7   100   147 xbar2            144.
##  8   100   147 median2          138 
##  9   100   147 samp.max         147 
## 10   100   147 mod.max          148.
## # … with 23,990 more rows
## # ℹ Use `print(n = ...)` to see more rows

results_long %>%
  group_by(nsamp, npop, estimator) %>%
  summarize(mean = mean(estimate), median = median(estimate), bias = mean(estimate - npop),
            var = var(estimate), mse = (mean(estimate - npop))^2 + var(estimate))

## `summarise()` has grouped output by 'nsamp', 'npop'. You can override using the
## `.groups` argument.

## # A tibble: 24 × 8
## # Groups:   nsamp, npop [4]
##    nsamp  npop estimator     mean median    bias    var    mse
##    <dbl> <dbl> <chr>        <dbl>  <dbl>   <dbl>  <dbl>  <dbl>
##  1    10   147 diff.min.max  148.   152.   0.517   373.   374.
##  2    10   147 median2       144.   143   -2.68   1577.  1584.
##  3    10   147 mod.max       148.   152.   0.502   181.   181.
##  4    10   147 samp.max      134.   138  -12.9     149.   316.
##  5    10   147 sum.min.max   147.   147    0.49    305.   305.
##  6    10   147 xbar2         146.   146.  -0.95    698.   699.
##  7    10   447 diff.min.max  451.   461.   4.36   3491.  3510.
##  8    10   447 median2       442.   438   -4.59  13902. 13923.
##  9    10   447 mod.max       450.   463.   3.26   1498.  1508.
## 10    10   447 samp.max      409.   420. -37.7    1238.  2657.
## # … with 14 more rows
## # ℹ Use `print(n = ...)` to see more rows
…
