Chapter 2 Data Wrangling | Getting Started with R & RStudio
…
##          gender  min     Q1 median      Q3  max       mean        sd  n
## 1        female   45   50.0     55   56.20   75   54.68889  8.591921  9
## 2 hermaphrodite 1358 1358.0   1358 1358.00 1358 1358.00000        NA  1
## 3          male   15   76.5     80   87.25  159   81.00455 28.223707 44
##   missing
## 1       7
## 2       0
## 3      16

starwars %>% 
  dplyr::select(name, ends_with("color"))

## # A tibble: 87 x 4
##    name               hair_color    skin_color  eye_color
##    <chr>              <chr>         <chr>       <chr>    
##  1 Luke Skywalker     blond         fair        blue     
##  2 C-3PO              <NA>          gold        yellow   
##  3 R2-D2              <NA>          white, blue red      
##  4 Darth Vader        none          white       yellow   
##  5 Leia Organa        brown         light       brown    
##  6 Owen Lars          brown, grey   light       blue     
##  7 Beru Whitesun lars brown         light       blue     
##  8 R5-D4              <NA>          white, red  red      
##  9 Biggs Darklighter  black         light       brown    
## 10 Obi-Wan Kenobi     auburn, white fair        blue-gray
## # … with 77 more rows

starwars %>% 
  dplyr::mutate(name, bmi = mass / ((height / 100)  ^ 2)) %>%
  dplyr::select(name:mass, bmi)

## # A tibble: 87 x 4
##    name               height  mass   bmi
##    <chr>               <int> <dbl> <dbl>
##  1 Luke Skywalker        172    77  26.0
##  2 C-3PO                 167    75  26.9
##  3 R2-D2                  96    32  34.7
##  4 Darth Vader           202   136  33.3
##  5 Leia Organa           150    49  21.8
##  6 Owen Lars             178   120  37.9
##  7 Beru Whitesun lars    165    75  27.5
##  8 R5-D4                  97    32  34.0
##  9 Biggs Darklighter     183    84  25.1
## 10 Obi-Wan Kenobi        182    77  23.2
## # … with 77 more rows

starwars %>% 
  dplyr::arrange(desc(mass))

## # A tibble: 87 x 13
##    name  height  mass hair_color skin_color eye_color birth_year gender
##    <chr>  <int> <dbl> <chr>      <chr>      <chr>          <dbl> <chr> 
##  1 Jabb…    175  1358 <NA>       green-tan… orange         600   herma…
##  2 Grie…    216   159 none       brown, wh… green, y…       NA   male  
##  3 IG-88    200   140 none       metal      red             15   none  
##  4 Dart…    202   136 none       white      yellow          41.9 male  
##  5 Tarf…    234   136 brown      brown      blue            NA   male  
##  6 Owen…    178   120 brown, gr… light      blue            52   male  
##  7 Bossk    190   113 none       green      red             53   male  
##  8 Chew…    228   112 brown      unknown    blue           200   male  
##  9 Jek …    180   110 brown      fair       blue            NA   male  
## 10 Dext…    198   102 none       brown      yellow          NA   male  
## # … with 77 more rows, and 5 more variables: homeworld <chr>,
## #   species <chr>, films <list>, vehicles <list>, starships <list>
…
babynames %>% 
  dplyr::select(-prop) %>% 
  tidyr::pivot_wider(names_from = sex, values_from = n) %>%
  dplyr::filter(!is.na(F) & !is.na(M)) %>%
  arrange(desc(year), desc(M))

## # A tibble: 168,381 x 4
##     year name         F     M
##    <dbl> <chr>    <int> <int>
##  1  2017 Liam        36 18728
##  2  2017 Noah       170 18326
##  3  2017 William     18 14904
##  4  2017 James       77 14232
##  5  2017 Logan     1103 13974
##  6  2017 Benjamin     8 13733
##  7  2017 Mason       58 13502
##  8  2017 Elijah      26 13268
##  9  2017 Oliver      15 13141
## 10  2017 Jacob       16 13106
## # … with 168,371 more rows
…
