…
```
##      gender min Q1 median   Q3  max      mean         sd  n missing
## 1  feminine  45 50     55 56.2   75  54.68889   8.591921  9       7
## 2 masculine  15 77     80 88.0 1358 109.38222 192.397084 45      16
```

```r
starwars %>% 
  dplyr::select(name, ends_with("color"))
```

```
## # A tibble: 87 × 4
##    name               hair_color    skin_color  eye_color
##    <chr>              <chr>         <chr>       <chr>    
##  1 Luke Skywalker     blond         fair        blue     
##  2 C-3PO              <NA>          gold        yellow   
##  3 R2-D2              <NA>          white, blue red      
##  4 Darth Vader        none          white       yellow   
##  5 Leia Organa        brown         light       brown    
##  6 Owen Lars          brown, grey   light       blue     
##  7 Beru Whitesun lars brown         light       blue     
##  8 R5-D4              <NA>          white, red  red      
##  9 Biggs Darklighter  black         light       brown    
## 10 Obi-Wan Kenobi     auburn, white fair        blue-gray
## # … with 77 more rows
```

```r
starwars %>% 
  dplyr::mutate(name, bmi = mass / ((height / 100)  ^ 2)) %>%
  dplyr::select(name:mass, bmi)
```

```
## # A tibble: 87 × 4
##    name               height  mass   bmi
##    <chr>               <int> <dbl> <dbl>
##  1 Luke Skywalker        172    77  26.0
##  2 C-3PO                 167    75  26.9
##  3 R2-D2                  96    32  34.7
##  4 Darth Vader           202   136  33.3
##  5 Leia Organa           150    49  21.8
##  6 Owen Lars             178   120  37.9
##  7 Beru Whitesun lars    165    75  27.5
##  8 R5-D4                  97    32  34.0
##  9 Biggs Darklighter     183    84  25.1
## 10 Obi-Wan Kenobi        182    77  23.2
## # … with 77 more rows
```

```r
starwars %>% 
  dplyr::arrange(desc(mass))
```

```
## # A tibble: 87 × 14
##    name    height  mass hair_color  skin_color eye_color birth_year sex   gender
##    <chr>    <int> <dbl> <chr>       <chr>      <chr>          <dbl> <chr> <chr> 
##  1 Jabba …    175  1358 <NA>        green-tan… orange         600   herm… mascu…
##  2 Grievo…    216   159 none        brown, wh… green, y…       NA   male  mascu…
##  3 IG-88      200   140 none        metal      red             15   none  mascu…
##  4 Darth …    202   136 none        white      yellow          41.9 male  mascu…
##  5 Tarfful    234   136 brown       brown      blue            NA   male  mascu…
##  6 Owen L…    178   120 brown, grey light      blue            52   male  mascu…
##  7 Bossk      190   113 none        green      red             53   male  mascu…
##  8 Chewba…    228   112 brown       unknown    blue           200   male  mascu…
##  9 Jek To…    180   110 brown       fair       blue            NA   male  mascu…
## 10 Dexter…    198   102 none        brown      yellow          NA   male  mascu…
## # … with 77 more rows, and 5 more variables: homeworld <chr>, species <chr>,
## #   films <list>, vehicles <list>, starships <list>
```
…
<img src="01b-wrangling_files/figure-html/unnamed-chunk-9-1.png" width="480" style="display: block; margin: auto;" />

### `pivot_wider`


```r
library(babynames)
babynames %>% dplyr::select(-prop) %>%
   tidyr::pivot_wider(names_from = sex, values_from = n) 
```

```
## # A tibble: 1,756,284 × 4
##     year name          F     M
##    <dbl> <chr>     <int> <int>
##  1  1880 Mary       7065    27
##  2  1880 Anna       2604    12
##  3  1880 Emma       2003    10
##  4  1880 Elizabeth  1939     9
##  5  1880 Minnie     1746     9
##  6  1880 Margaret   1578    NA
##  7  1880 Ida        1472     8
##  8  1880 Alice      1414    NA
##  9  1880 Bertha     1320    NA
## 10  1880 Sarah      1288    NA
## # … with 1,756,274 more rows
```



```r
babynames %>% 
  select(-prop) %>% 
  pivot_wider(names_from = sex, values_from = n) %>%
  filter(!is.na(F) & !is.na(M)) %>%
  arrange(desc(year), desc(M))
```

```
## # A tibble: 168,381 × 4
##     year name         F     M
##    <dbl> <chr>    <int> <int>
##  1  2017 Liam        36 18728
##  2  2017 Noah       170 18326
##  3  2017 William     18 14904
##  4  2017 James       77 14232
##  5  2017 Logan     1103 13974
##  6  2017 Benjamin     8 13733
##  7  2017 Mason       58 13502
##  8  2017 Elijah      26 13268
##  9  2017 Oliver      15 13141
## 10  2017 Jacob       16 13106
## # … with 168,371 more rows
```
…
```r
Credit %>%
  lm(Balance ~ Limit, data = .) %>%
  augment()
```

```
## # A tibble: 400 × 8
##    Balance Limit .fitted  .resid    .hat .sigma     .cooksd .std.resid
##      <int> <int>   <dbl>   <dbl>   <dbl>  <dbl>       <dbl>      <dbl>
##  1     333  3606    326.    6.87 0.00310   234. 0.00000135      0.0294
##  2     903  6645    848.   55.3  0.00422   234. 0.000119        0.237 
##  3     580  7075    922. -342.   0.00507   233. 0.00548        -1.47  
##  4     964  9504   1338. -374.   0.0132    233. 0.0174         -1.61  
##  5     331  4897    548. -217.   0.00251   234. 0.00109        -0.929 
##  6    1151  8047   1088.   62.6  0.00766   234. 0.000280        0.269 
##  7     203  3388    289.  -85.7  0.00335   234. 0.000227       -0.368 
##  8     872  7114    928.  -56.2  0.00516   234. 0.000151       -0.241 
##  9     279  3300    274.    5.39 0.00347   234. 0.000000929     0.0231
## 10    1350  6819    878.  472.   0.00454   233. 0.00937         2.03  
## # … with 390 more rows
```
…
## R: Model comparison with Restaurant tips^[Thanks to Mine Çentinkaya-Rundel for the majority of the content in this example.  Mine's course is at https://mine-cr.com/teaching/sta210/.] {#tips}

A student collected data from a restaurant where she was a waitress [@tips]. The student was interested in learning under what conditions a waitress can expect the largest tips—for example: At dinner time or late at night? From younger or older patrons? From patrons receiving free meals? From patrons drinking alcohol? From patrons tipping with cash or credit? And should tip amount be measured as total dollar amount or as a percentage? 

> Which variables help us predict the amount customers tip at a restaurant?  Which model is best?

Instead of jumping into the predictions immediately, let's look at the data itself.  What wrangling can we do to the data in order to make the model accurate and easy to communicate?




```
## # A tibble: 169 × 4
##      Tip Party Meal   Age   
##    <dbl> <dbl> <chr>  <chr> 
##  1  2.99     1 Dinner Yadult
##  2  2        1 Dinner Yadult
##  3  5        1 Dinner SenCit
##  4  4        3 Dinner Middle
##  5 10.3      2 Dinner SenCit
##  6  4.85     2 Dinner Middle
##  7  5        4 Dinner Yadult
##  8  4        3 Dinner Middle
##  9  5        2 Dinner Middle
## 10  1.58     1 Dinner SenCit
## # … with 159 more rows
```
…
## Feature Engineering

For the example used to consider feature engineering, the data come from [data.world](https://data.world/anujjain7/the-office-imdb-ratings-dataset), by way of [TidyTuesday](https://github.com/rfordatascience/tidytuesday/blob/master/data/2020/2020-03-17/readme.md).  They now exist in the [**schrute** R package](https://bradlindblad.github.io/schrute/).

> Can the IMDB rating (`imdb_rating`) for The Office be predicted from the other variables in the dataset?  Which model is best?

Instead of jumping into the predictions immediately, let's look at the data itself.  What wrangling can we do to the data in order to take advantage of all the information in the variables?  We'd also like to make the model accurate and easy to communicate.


```
## # A tibble: 188 × 6
##    season episode title             imdb_rating total_votes air_date  
##     <dbl>   <dbl> <chr>                   <dbl>       <dbl> <date>    
##  1      1       1 Pilot                     7.6        3706 2005-03-24
##  2      1       2 Diversity Day             8.3        3566 2005-03-29
##  3      1       3 Health Care               7.9        2983 2005-04-05
##  4      1       4 The Alliance              8.1        2886 2005-04-12
##  5      1       5 Basketball                8.4        3179 2005-04-19
##  6      1       6 Hot Girl                  7.8        2852 2005-04-26
##  7      2       1 The Dundies               8.7        3213 2005-09-20
##  8      2       2 Sexual Harassment         8.2        2736 2005-09-27
##  9      2       3 Office Olympics           8.4        2742 2005-10-04
## 10      2       4 The Fire                  8.4        2713 2005-10-11
## # … with 178 more rows
```
…
```
## [1] 47  6
```

#### Using the training data {-}


```r
office_train
```

```
## # A tibble: 141 × 6
##    season episode title               imdb_rating total_votes air_date  
##     <dbl>   <dbl> <chr>                     <dbl>       <dbl> <date>    
##  1      8      18 Last Day in Florida         7.8        1429 2012-03-08
##  2      9      14 Vandalism                   7.6        1402 2013-01-31
##  3      2       8 Performance Review          8.2        2416 2005-11-15
##  4      9       5 Here Comes Treble           7.1        1515 2012-10-25
##  5      3      22 Beach Games                 9.1        2783 2007-05-10
##  6      7       1 Nepotism                    8.4        1897 2010-09-23
##  7      3      15 Phyllis' Wedding            8.3        2283 2007-02-08
##  8      9      21 Livin' the Dream            8.9        2041 2013-05-02
##  9      9      18 Promos                      8          1445 2013-04-04
## 10      8      12 Pool Party                  8          1612 2012-01-19
## # … with 131 more rows
```
…
```r
office_train %>%
  mutate(
    season = as_factor(season),
    month = lubridate::month(air_date),
    wday = lubridate::wday(air_date)
  )
```

```
## # A tibble: 141 × 8
##   season episode title            imdb_rating total_votes air_date   month  wday
##   <fct>    <dbl> <chr>                  <dbl>       <dbl> <date>     <dbl> <dbl>
## 1 8           18 Last Day in Flo…         7.8        1429 2012-03-08     3     5
## 2 9           14 Vandalism                7.6        1402 2013-01-31     1     5
## 3 2            8 Performance Rev…         8.2        2416 2005-11-15    11     3
## 4 9            5 Here Comes Treb…         7.1        1515 2012-10-25    10     5
## 5 3           22 Beach Games              9.1        2783 2007-05-10     5     5
## 6 7            1 Nepotism                 8.4        1897 2010-09-23     9     5
## # … with 135 more rows
```
…
### Evaluate the model

#### Predictions for training data {-}


```r
office_train_pred <- predict(office_fit, office_train) %>%
  bind_cols(office_train %>% select(imdb_rating, title))

office_train_pred
```

```
## # A tibble: 141 × 3
##    .pred imdb_rating title              
##    <dbl>       <dbl> <chr>              
##  1  7.57         7.8 Last Day in Florida
##  2  7.77         7.6 Vandalism          
##  3  8.31         8.2 Performance Review 
##  4  7.67         7.1 Here Comes Treble  
##  5  8.84         9.1 Beach Games        
##  6  8.33         8.4 Nepotism           
##  7  8.46         8.3 Phyllis' Wedding   
##  8  8.14         8.9 Livin' the Dream   
##  9  7.87         8   Promos             
## 10  7.74         8   Pool Party         
## # … with 131 more rows
```
…
*who cares about predictions on **training** data?*

### Predictions for testing data {-}


```r
office_test_pred <- predict(office_fit, office_test) %>%
  bind_cols(office_test %>% select(imdb_rating, title))

office_test_pred
```

```
## # A tibble: 47 × 3
##    .pred imdb_rating title              
##    <dbl>       <dbl> <chr>              
##  1  8.03         8.3 Diversity Day      
##  2  7.98         7.9 Health Care        
##  3  8.41         8.4 The Fire           
##  4  8.35         8.2 Halloween          
##  5  8.35         8.4 E-Mail Surveillance
##  6  8.68         9   The Injury         
##  7  8.32         7.9 The Carpet         
##  8  8.93         9.3 Casino Night       
##  9  8.80         8.9 Gay Witch Hunt     
## 10  8.37         8.2 Initiation         
## # … with 37 more rows
```
…
```r
office_fit <- office_wflow %>%
  fit(data = office_train)
```

The fit object is the same as the output of `lm()` that you are used to working with:

```r
office_fit %>% tidy()
```

```
## # A tibble: 21 × 5
##    term         estimate std.error statistic  p.value
##    <chr>           <dbl>     <dbl>     <dbl>    <dbl>
##  1 (Intercept)  6.40     0.510        12.5   1.51e-23
##  2 episode     -0.00393  0.0171       -0.230 8.18e- 1
##  3 total_votes  0.000375 0.0000414     9.07  2.75e-15
##  4 season_X2    0.811    0.327         2.48  1.44e- 2
##  5 season_X3    1.04     0.343         3.04  2.91e- 3
##  6 season_X4    1.09     0.295         3.70  3.32e- 4
##  7 season_X5    1.08     0.348         3.11  2.34e- 3
##  8 season_X6    1.00     0.367         2.74  7.18e- 3
##  9 season_X7    1.02     0.352         2.89  4.52e- 3
## 10 season_X8    0.497    0.348         1.43  1.55e- 1
## # … with 11 more rows
```
…
#### Per observation measures: {-}
Most of the leverage and residual metrics are available directly from `augment()`.  Some of the values come directly from the `lm()` (which would then need to be connected, via `bind_cols()`, to the other output, for example to create a residual plot).


```r
oz_lm %>% augment() %>%
  select(.resid, .hat, .cooksd, .std.resid) %>%
  bind_cols(rstudent = oz_lm %>% rstudent())  %>%
  bind_cols(dffits = oz_lm %>% dffits()) %>%
  bind_cols(oz_lm %>% dfbetas())
```

```
## # A tibble: 941 × 16
##     .resid    .hat   .cooksd .std.resid rstudent  dffits `(Intercept)`    weeks
##      <dbl>   <dbl>     <dbl>      <dbl>    <dbl>   <dbl>         <dbl>    <dbl>
##  1 -0.321  0.00775 0.0000792    -0.318   -0.318  -0.0281     -0.00600   0.00690
##  2  1.38   0.00916 0.00174       1.37     1.37    0.132       0.0245   -0.0290 
##  3  0.882  0.0115  0.000891      0.876    0.876   0.0944      0.0195   -0.0182 
##  4 -1.00   0.0110  0.00110      -0.995   -0.995  -0.105      -0.000473 -0.0127 
##  5  0.502  0.0159  0.000403      0.500    0.500   0.0635     -0.0312    0.0300 
##  6 -0.774  0.00490 0.000290     -0.767   -0.767  -0.0538     -0.00937   0.00917
##  7  0.0901 0.0162  0.0000133     0.0898   0.0897  0.0115     -0.00562   0.00534
##  8 -1.56   0.00955 0.00232      -1.55    -1.55   -0.152       0.0288   -0.0252 
##  9  1.58   0.00434 0.00107       1.56     1.56    0.103       0.0169   -0.0205 
## 10  1.75   0.00776 0.00234       1.73     1.73    0.153       0.0265   -0.0177 
## # … with 931 more rows, and 8 more variables: sexmale <dbl>, termfull <dbl>,
## #   termlate <dbl>, gained <dbl>, premiepremie <dbl>, mage <dbl>,
## #   whitemomwhite <dbl>, habitsmoker <dbl>
```
…
#### The Data {-}
The following dataset is from [TidyTuesday](https://github.com/rfordatascience/tidytuesday).  Again, we explore the information from [The Office](https://www.imdb.com/title/tt0386676/).  The analysis here is taken from [Julia Silge's blog](https://juliasilge.com/blog/lasso-the-office/).  She does a bit of data wrangling that I'm going to hide.  Look through her blog, or see the [source code](https://github.com/hardin47/website/tree/gh-pages/Math158) for this bookdown file.





The dataset we will be working with has `imdb_rating` as the response variable.  The predictor (explanatory) variables are: `season`, `episode` and 28 columns representing the number of lines of a particular character.

```r
office
```

```
## # A tibble: 136 × 32
##    season episode episode_name       andy angela darryl dwight   jim kelly kevin
##     <dbl>   <dbl> <chr>             <int>  <int>  <int>  <int> <int> <int> <int>
##  1      1       1 pilot                 0      1      0     29    36     0     1
##  2      1       2 diversity day         0      4      0     17    25     2     8
##  3      1       3 health care           0      5      0     62    42     0     6
##  4      1       5 basketball            0      3     15     25    21     0     1
##  5      1       6 hot girl              0      3      0     28    55     0     5
##  6      2       1 dundies               0      1      1     32    32     7     1
##  7      2       2 sexual harassment     0      2      9     11    16     0     6
##  8      2       3 office olympics       0      6      0     55    55     0     9
##  9      2       4 fire                  0     17      0     65    51     4     5
## 10      2       5 halloween             0     13      0     33    30     3     2
## # … with 126 more rows, and 22 more variables: michael <int>, oscar <int>,
## #   pam <int>, phyllis <int>, ryan <int>, toby <int>, erin <int>, jan <int>,
## #   ken_kwapis <dbl>, greg_daniels <dbl>, b_j_novak <dbl>,
## #   paul_lieberstein <dbl>, mindy_kaling <dbl>, paul_feig <dbl>,
## #   gene_stupnitsky <dbl>, lee_eisenberg <dbl>, jennifer_celotta <dbl>,
## #   randall_einhorn <dbl>, brent_forrester <dbl>, jeffrey_blitz <dbl>,
## #   justin_spitzer <dbl>, imdb_rating <dbl>
```
…
The full linear model:


```r
office_lm <- office_train %>%
  select(-episode_name) %>%
  lm(imdb_rating ~ ., data = .)

office_lm %>% tidy()
```

```
## # A tibble: 31 × 5
##    term         estimate std.error statistic  p.value
##    <chr>           <dbl>     <dbl>     <dbl>    <dbl>
##  1 (Intercept)  7.19       0.315     22.8    3.83e-34
##  2 season      -0.00222    0.0366    -0.0607 9.52e- 1
##  3 episode      0.0145     0.00730    1.98   5.15e- 2
##  4 andy         0.00215    0.00424    0.507  6.14e- 1
##  5 angela       0.00307    0.00865    0.354  7.24e- 1
##  6 darryl       0.000932   0.00783    0.119  9.06e- 1
##  7 dwight      -0.00172    0.00380   -0.452  6.53e- 1
##  8 jim          0.00541    0.00375    1.44   1.54e- 1
##  9 kelly       -0.0129     0.0101    -1.28   2.05e- 1
## 10 kevin        0.00279    0.0114     0.244  8.08e- 1
## # … with 21 more rows
```
…
No good!  The coefficients cannot be estimated!  (Here, 5 points were randomly selected, remember $p = 31$.)  The model breaks down because $(X^t X)^{-1}$ is not invertible.  Notice that only 5 coefficients are estimated and no SEs are estimated.



```r
set.seed(47)
office_train %>%
  select(-episode_name) %>%
  slice_sample(n = 5) %>%
  lm(imdb_rating ~ ., data = .) %>% 
  tidy()
```

```
## # A tibble: 31 × 5
##    term        estimate std.error statistic p.value
##    <chr>          <dbl>     <dbl>     <dbl>   <dbl>
##  1 (Intercept)   7.30         NaN       NaN     NaN
##  2 season        0.228        NaN       NaN     NaN
##  3 episode       0.0264       NaN       NaN     NaN
##  4 andy         -0.0197       NaN       NaN     NaN
##  5 angela        0.0499       NaN       NaN     NaN
##  6 darryl       NA             NA        NA      NA
##  7 dwight       NA             NA        NA      NA
##  8 jim          NA             NA        NA      NA
##  9 kelly        NA             NA        NA      NA
## 10 kevin        NA             NA        NA      NA
## # … with 21 more rows
```
…
ridge_fit <- ridge_wf %>%
  add_model(ridge_spec) %>%
  fit(data = office_train)
```

It turns out that **glmnet** fits the model for *all* values of `penalty` at once, so we can see the coefficients for any other value of `penalty` of interest.  Notice that the coefficients are smaller for larger values of the `penalty`.


```r
ridge_fit %>% tidy()
```

```
## # A tibble: 31 × 3
##    term         estimate penalty
##    <chr>           <dbl>   <dbl>
##  1 (Intercept)  8.36          47
##  2 season      -0.00110       47
##  3 episode      0.00107       47
##  4 andy        -0.000546      47
##  5 angela       0.00106       47
##  6 darryl       0.000434      47
##  7 dwight       0.000952      47
##  8 jim          0.00150       47
##  9 kelly        0.000112      47
## 10 kevin        0.000600      47
## # … with 21 more rows
```
…
