…
## Feature Engineering

For the example used to consider feature engineering, the data come from [data.world](https://data.world/anujjain7/the-office-imdb-ratings-dataset), by way of [TidyTuesday](https://github.com/rfordatascience/tidytuesday/blob/master/data/2020/2020-03-17/readme.md).  They now exist in the [**schrute** R package](https://bradlindblad.github.io/schrute/).

> Can the IMDB rating (`imdb_rating`) for The Office be predicted from the other variables in the dataset?  Which model is best?

Instead of jumping into the predictions immediately, let's look at the data itself.  What wrangling can we do to the data in order to take advantage of all the information in the variables?  We'd also like to make the model accurate and easy to communicate.


```
## # A tibble: 188 × 6
##    season episode title             imdb_rating total_votes air_date  
##     <dbl>   <dbl> <chr>                   <dbl>       <dbl> <date>    
##  1      1       1 Pilot                     7.6        3706 2005-03-24
##  2      1       2 Diversity Day             8.3        3566 2005-03-29
##  3      1       3 Health Care               7.9        2983 2005-04-05
##  4      1       4 The Alliance              8.1        2886 2005-04-12
##  5      1       5 Basketball                8.4        3179 2005-04-19
##  6      1       6 Hot Girl                  7.8        2852 2005-04-26
##  7      2       1 The Dundies               8.7        3213 2005-09-20
##  8      2       2 Sexual Harassment         8.2        2736 2005-09-27
##  9      2       3 Office Olympics           8.4        2742 2005-10-04
## 10      2       4 The Fire                  8.4        2713 2005-10-11
## # … with 178 more rows
```
…
```
## [1] 47  6
```

#### Using the training data {-}


```r
office_train
```

```
## # A tibble: 141 × 6
##    season episode title               imdb_rating total_votes air_date  
##     <dbl>   <dbl> <chr>                     <dbl>       <dbl> <date>    
##  1      8      18 Last Day in Florida         7.8        1429 2012-03-08
##  2      9      14 Vandalism                   7.6        1402 2013-01-31
##  3      2       8 Performance Review          8.2        2416 2005-11-15
##  4      9       5 Here Comes Treble           7.1        1515 2012-10-25
##  5      3      22 Beach Games                 9.1        2783 2007-05-10
##  6      7       1 Nepotism                    8.4        1897 2010-09-23
##  7      3      15 Phyllis' Wedding            8.3        2283 2007-02-08
##  8      9      21 Livin' the Dream            8.9        2041 2013-05-02
##  9      9      18 Promos                      8          1445 2013-04-04
## 10      8      12 Pool Party                  8          1612 2012-01-19
## # … with 131 more rows
```
…
```r
office_train %>%
  mutate(
    season = as_factor(season),
    month = lubridate::month(air_date),
    wday = lubridate::wday(air_date)
  )
```

```
## # A tibble: 141 × 8
##   season episode title            imdb_rating total_votes air_date   month  wday
##   <fct>    <dbl> <chr>                  <dbl>       <dbl> <date>     <dbl> <dbl>
## 1 8           18 Last Day in Flo…         7.8        1429 2012-03-08     3     5
## 2 9           14 Vandalism                7.6        1402 2013-01-31     1     5
## 3 2            8 Performance Rev…         8.2        2416 2005-11-15    11     3
## 4 9            5 Here Comes Treb…         7.1        1515 2012-10-25    10     5
## 5 3           22 Beach Games              9.1        2783 2007-05-10     5     5
## 6 7            1 Nepotism                 8.4        1897 2010-09-23     9     5
## # … with 135 more rows
```
…
### Evaluate the model

#### Predictions for training data {-}


```r
office_train_pred <- predict(office_fit, office_train) %>%
  bind_cols(office_train %>% select(imdb_rating, title))

office_train_pred
```

```
## # A tibble: 141 × 3
##    .pred imdb_rating title              
##    <dbl>       <dbl> <chr>              
##  1  7.57         7.8 Last Day in Florida
##  2  7.77         7.6 Vandalism          
##  3  8.31         8.2 Performance Review 
##  4  7.67         7.1 Here Comes Treble  
##  5  8.84         9.1 Beach Games        
##  6  8.33         8.4 Nepotism           
##  7  8.46         8.3 Phyllis' Wedding   
##  8  8.14         8.9 Livin' the Dream   
##  9  7.87         8   Promos             
## 10  7.74         8   Pool Party         
## # … with 131 more rows
```
…
*who cares about predictions on **training** data?*

### Predictions for testing data {-}


```r
office_test_pred <- predict(office_fit, office_test) %>%
  bind_cols(office_test %>% select(imdb_rating, title))

office_test_pred
```

```
## # A tibble: 47 × 3
##    .pred imdb_rating title              
##    <dbl>       <dbl> <chr>              
##  1  8.03         8.3 Diversity Day      
##  2  7.98         7.9 Health Care        
##  3  8.41         8.4 The Fire           
##  4  8.35         8.2 Halloween          
##  5  8.35         8.4 E-Mail Surveillance
##  6  8.68         9   The Injury         
##  7  8.32         7.9 The Carpet         
##  8  8.93         9.3 Casino Night       
##  9  8.80         8.9 Gay Witch Hunt     
## 10  8.37         8.2 Initiation         
## # … with 37 more rows
```
…
```r
office_fit <- office_wflow %>%
  fit(data = office_train)
```

The fit object is the same as the output of `lm()` that you are used to working with:

```r
office_fit %>% tidy()
```

```
## # A tibble: 21 × 5
##    term         estimate std.error statistic  p.value
##    <chr>           <dbl>     <dbl>     <dbl>    <dbl>
##  1 (Intercept)  6.40     0.510        12.5   1.51e-23
##  2 episode     -0.00393  0.0171       -0.230 8.18e- 1
##  3 total_votes  0.000375 0.0000414     9.07  2.75e-15
##  4 season_X2    0.811    0.327         2.48  1.44e- 2
##  5 season_X3    1.04     0.343         3.04  2.91e- 3
##  6 season_X4    1.09     0.295         3.70  3.32e- 4
##  7 season_X5    1.08     0.348         3.11  2.34e- 3
##  8 season_X6    1.00     0.367         2.74  7.18e- 3
##  9 season_X7    1.02     0.352         2.89  4.52e- 3
## 10 season_X8    0.497    0.348         1.43  1.55e- 1
## # … with 11 more rows
```
…
