…
#### The Data {-}
The following dataset is from [TidyTuesday](https://github.com/rfordatascience/tidytuesday).  Again, we explore the information from [The Office](https://www.imdb.com/title/tt0386676/).  The analysis here is taken from [Julia Silge's blog](https://juliasilge.com/blog/lasso-the-office/).  She does a bit of data wrangling that I'm going to hide.  Look through her blog, or see the [source code](https://github.com/hardin47/website/tree/gh-pages/Math158) for this bookdown file.





The dataset we will be working with has `imdb_rating` as the response variable.  The predictor (explanatory) variables are: `season`, `episode` and 28 columns representing the number of lines of a particular character.

```r
office
```

```
## # A tibble: 136 × 32
##    season episode episode_name       andy angela darryl dwight   jim kelly kevin
##     <dbl>   <dbl> <chr>             <int>  <int>  <int>  <int> <int> <int> <int>
##  1      1       1 pilot                 0      1      0     29    36     0     1
##  2      1       2 diversity day         0      4      0     17    25     2     8
##  3      1       3 health care           0      5      0     62    42     0     6
##  4      1       5 basketball            0      3     15     25    21     0     1
##  5      1       6 hot girl              0      3      0     28    55     0     5
##  6      2       1 dundies               0      1      1     32    32     7     1
##  7      2       2 sexual harassment     0      2      9     11    16     0     6
##  8      2       3 office olympics       0      6      0     55    55     0     9
##  9      2       4 fire                  0     17      0     65    51     4     5
## 10      2       5 halloween             0     13      0     33    30     3     2
## # … with 126 more rows, and 22 more variables: michael <int>, oscar <int>,
## #   pam <int>, phyllis <int>, ryan <int>, toby <int>, erin <int>, jan <int>,
## #   ken_kwapis <dbl>, greg_daniels <dbl>, b_j_novak <dbl>,
## #   paul_lieberstein <dbl>, mindy_kaling <dbl>, paul_feig <dbl>,
## #   gene_stupnitsky <dbl>, lee_eisenberg <dbl>, jennifer_celotta <dbl>,
## #   randall_einhorn <dbl>, brent_forrester <dbl>, jeffrey_blitz <dbl>,
## #   justin_spitzer <dbl>, imdb_rating <dbl>
```
…
The full linear model:


```r
office_lm <- office_train %>%
  select(-episode_name) %>%
  lm(imdb_rating ~ ., data = .)

office_lm %>% tidy()
```

```
## # A tibble: 31 × 5
##    term         estimate std.error statistic  p.value
##    <chr>           <dbl>     <dbl>     <dbl>    <dbl>
##  1 (Intercept)  7.18       0.243      29.6   2.66e-41
##  2 season      -0.00779    0.0323     -0.241 8.10e- 1
##  3 episode      0.0181     0.00574     3.14  2.44e- 3
##  4 andy         0.00474    0.00302     1.57  1.21e- 1
##  5 angela       0.00147    0.00524     0.280 7.81e- 1
##  6 darryl       0.00538    0.00705     0.763 4.48e- 1
##  7 dwight      -0.000885   0.00301    -0.294 7.70e- 1
##  8 jim          0.00775    0.00296     2.61  1.10e- 2
##  9 kelly       -0.0175     0.00961    -1.82  7.35e- 2
## 10 kevin       -0.00170    0.00815    -0.209 8.35e- 1
## # … with 21 more rows
```
…
No good!  The coefficients cannot be estimated!  (Here, 5 points were randomly selected, remember $p = 31$.)  The model breaks down because $(X^t X)^{-1}$ is not invertible.  Notice that only 5 coefficients are estimated and no SEs are estimated.



```r
set.seed(47)
office_train %>%
  select(-episode_name) %>%
  slice_sample(n = 5) %>%
  lm(imdb_rating ~ ., data = .) %>% 
  tidy()
```

```
## # A tibble: 31 × 5
##    term        estimate std.error statistic p.value
##    <chr>          <dbl>     <dbl>     <dbl>   <dbl>
##  1 (Intercept)  7.64          NaN       NaN     NaN
##  2 season      -0.116         NaN       NaN     NaN
##  3 episode      0.0479        NaN       NaN     NaN
##  4 andy        -0.00932       NaN       NaN     NaN
##  5 angela       0.0323        NaN       NaN     NaN
##  6 darryl      NA              NA        NA      NA
##  7 dwight      NA              NA        NA      NA
##  8 jim         NA              NA        NA      NA
##  9 kelly       NA              NA        NA      NA
## 10 kevin       NA              NA        NA      NA
## # … with 21 more rows
```
…
ridge_fit <- ridge_wf %>%
  add_model(ridge_spec) %>%
  fit(data = office_train)
```

It turns out that **glmnet** fits the model for *all* values of `penalty` at once, so we can see the coefficients for any other value of `penalty` of interest.  Notice that the coefficients are smaller for larger values of the `penalty`.


```r
ridge_fit %>% tidy()
```

```
## # A tibble: 31 × 3
##    term         estimate penalty
##    <chr>           <dbl>   <dbl>
##  1 (Intercept)  8.37          47
##  2 season      -0.000837      47
##  3 episode      0.000915      47
##  4 andy        -0.000123      47
##  5 angela       0.00108       47
##  6 darryl       0.000389      47
##  7 dwight       0.00113       47
##  8 jim          0.00189       47
##  9 kelly        0.000277      47
## 10 kevin        0.00110       47
## # … with 21 more rows
```

```r
ridge_fit %>% tidy(penalty = 0)
```

```
## # A tibble: 31 × 3
##    term        estimate penalty
##    <chr>          <dbl>   <dbl>
##  1 (Intercept)  8.37          0
##  2 season      -0.0250        0
##  3 episode      0.128         0
##  4 andy         0.0811        0
##  5 angela       0.0120        0
##  6 darryl       0.0375        0
##  7 dwight      -0.00887       0
##  8 jim          0.127         0
##  9 kelly       -0.0769        0
## 10 kevin       -0.00452       0
## # … with 21 more rows
```
…
<img src="05-shrink_files/figure-html/unnamed-chunk-18-1.png" width="480" style="display: block; margin: auto;" />

Prediction is done like other linear models.  So if `predict()` is used with no other parameters, it will use `penalty = 47` as specified above:


```r
predict(ridge_fit, new_data = office_train)
```

```
## # A tibble: 100 × 1
##    .pred
##    <dbl>
##  1  8.37
##  2  8.36
##  3  8.37
##  4  8.37
##  5  8.36
##  6  8.37
##  7  8.37
##  8  8.37
##  9  8.37
## 10  8.37
## # … with 90 more rows
```
…
```r
collect_metrics(ridge_cv) %>%
  filter(.metric == "rmse") %>%
  arrange(mean)
```

```
## # A tibble: 50 × 7
##      penalty .metric .estimator  mean     n std_err .config              
##        <dbl> <chr>   <chr>      <dbl> <int>   <dbl> <chr>                
##  1 0.193     rmse    standard   0.395    10  0.0236 Preprocessor1_Model22
##  2 0.121     rmse    standard   0.396    10  0.0245 Preprocessor1_Model21
##  3 0.309     rmse    standard   0.396    10  0.0235 Preprocessor1_Model23
##  4 0.0754    rmse    standard   0.399    10  0.0258 Preprocessor1_Model20
##  5 0.494     rmse    standard   0.400    10  0.0243 Preprocessor1_Model24
##  6 0.0471    rmse    standard   0.403    10  0.0273 Preprocessor1_Model19
##  7 0.791     rmse    standard   0.407    10  0.0258 Preprocessor1_Model25
##  8 0.0295    rmse    standard   0.408    10  0.0286 Preprocessor1_Model18
##  9 0.00001   rmse    standard   0.411    10  0.0294 Preprocessor1_Model01
## 10 0.0000160 rmse    standard   0.411    10  0.0294 Preprocessor1_Model02
## # … with 40 more rows
```
…
#### The Final Ridge Model {-}

Using the $\lambda$ value for the minimum MSE in the cross validation, we output the coefficients / model associated with the best $\lambda$ for the ridge regression model.  **Ridge regression does not do variable selection.**


```r
finalize_workflow(ridge_wf %>% add_model(ridge_spec_tune), best_rr) %>%
  fit(data = office_test) %>% tidy()
```

```
## # A tibble: 31 × 3
##    term        estimate penalty
##    <chr>          <dbl>   <dbl>
##  1 (Intercept)   8.38     0.193
##  2 season       -0.0344   0.193
##  3 episode       0.0892   0.193
##  4 andy         -0.0426   0.193
##  5 angela        0.0787   0.193
##  6 darryl        0.0220   0.193
##  7 dwight        0.0141   0.193
##  8 jim           0.0274   0.193
##  9 kelly        -0.0730   0.193
## 10 kevin         0.0389   0.193
## # … with 21 more rows
```
…
```r
collect_metrics(lasso_cv) %>%
  filter(.metric == "rmse") %>%
  arrange(desc(.metric))
```

```
## # A tibble: 50 × 7
##      penalty .metric .estimator  mean     n std_err .config              
##        <dbl> <chr>   <chr>      <dbl> <int>   <dbl> <chr>                
##  1 0.00001   rmse    standard   0.423    10  0.0318 Preprocessor1_Model01
##  2 0.0000160 rmse    standard   0.423    10  0.0318 Preprocessor1_Model02
##  3 0.0000256 rmse    standard   0.423    10  0.0318 Preprocessor1_Model03
##  4 0.0000409 rmse    standard   0.423    10  0.0318 Preprocessor1_Model04
##  5 0.0000655 rmse    standard   0.423    10  0.0318 Preprocessor1_Model05
##  6 0.000105  rmse    standard   0.423    10  0.0318 Preprocessor1_Model06
##  7 0.000168  rmse    standard   0.423    10  0.0318 Preprocessor1_Model07
##  8 0.000268  rmse    standard   0.423    10  0.0318 Preprocessor1_Model08
##  9 0.000429  rmse    standard   0.422    10  0.0316 Preprocessor1_Model09
## 10 0.000687  rmse    standard   0.421    10  0.0314 Preprocessor1_Model10
## # … with 40 more rows
```
…
#### The Final Lasso Model {-}

Using the $\lambda$ value for the minimum MSE in the cross validation, we output the coefficients / model associated with the best $\lambda$ for the ridge regression model.  **Lasso regularization DOES do variable selection.**  Note the large number of coefficients that are set to zero.


```r
finalize_workflow(lasso_wf %>% add_model(lasso_spec_tune), best_lasso) %>%
  fit(data = office_test) %>% tidy()
```

```
## # A tibble: 31 × 3
##    term        estimate penalty
##    <chr>          <dbl>   <dbl>
##  1 (Intercept)  8.38    0.00720
##  2 season       0       0.00720
##  3 episode      0.157   0.00720
##  4 andy        -0.0739  0.00720
##  5 angela       0.231   0.00720
##  6 darryl       0.0663  0.00720
##  7 dwight      -0.0721  0.00720
##  8 jim         -0.00866 0.00720
##  9 kelly       -0.167   0.00720
## 10 kevin        0       0.00720
## # … with 21 more rows
```
