Chapter 8 Bootstrapping | Linear Models
…
8.4 R example: Heroin

Hesketh and Everitt (2000) report on a study by Caplehorn and Bell (1991) that investigated the times (in days) spent a clinic for methadone maintenance treatment for people addicted to heroin. The data in heroin.txt include the amount of time that the subjects stayed in the facility until treatment was terminated (column 4). For about 37% of the subjects, the study ended while they were still the in clinic (status=0). Thus, their survival time has been truncated. For this reason we might not want to estimate the mean survival time, but rather some other measure of typical survival time. Below we explore using the median as well as the 25% trimmed mean. We treat the group of 238 patients as representative of the population. (From Chance and Rossman 2018, Investigation 4.5.3)

Why bootstrap?

Motivation: to estimate the variability of a statistic (not dependent on \(H_0\) being true).

Reading in the data

heroin <- read_table("http://www.rossmanchance.com/iscam2/data/heroin.txt")
heroin %>%
  select(-prison)

## # A tibble: 238 × 5
##       id clinic status times  dose
##    <dbl>  <dbl>  <dbl> <dbl> <dbl>
##  1     1      1      1   428    50
##  2     2      1      1   275    55
##  3     3      1      1   262    55
##  4     4      1      1   183    30
##  5     5      1      1   259    65
##  6     6      1      1   714    55
##  7     7      1      1   438    65
##  8     8      1      0   796    60
##  9     9      1      1   892    50
## 10    10      1      1   393    65
## # … with 228 more rows
…
resample function

boot_1_func <- function(df){
  df %>% 
    sample_frac(size=1, replace=TRUE)
}

bootstrapping

map_df(1:n_rep1, ~boot_stat_func(df = heroin))

## # A tibble: 100 × 4
##    boot_med boot_tr_mean obs_med obs_tr_mean
##       <dbl>        <dbl>   <dbl>       <dbl>
##  1     368          372.    368.        378.
##  2     358          363.    368.        378.
##  3     431          421.    368.        378.
##  4     332.         350.    368.        378.
##  5     310.         331.    368.        378.
##  6     376          382.    368.        378.
##  7     366          365.    368.        378.
##  8     378.         382.    368.        378.
##  9     394          386.    368.        378.
## 10     392.         402.    368.        378.
## # … with 90 more rows
…
What does the boot output look like?

boot_stats <- map_df(1:n_rep1, ~boot_stat_func(df = heroin))

boot_stats

## # A tibble: 100 × 4
##    boot_med boot_tr_mean obs_med obs_tr_mean
##       <dbl>        <dbl>   <dbl>       <dbl>
##  1     362          373.    368.        378.
##  2     342.         345.    368.        378.
##  3     388.         393.    368.        378.
##  4     452          428.    368.        378.
##  5     400.         400.    368.        378.
##  6     348          363.    368.        378.
##  7     399          405.    368.        378.
##  8     394          398.    368.        378.
##  9     358          359.    368.        378.
## 10     299          332.    368.        378.
## # … with 90 more rows
…
double bootstrap!

boot_2_stats <- data.frame(resample1 = 1:n_rep1) %>%
  mutate(first_boot = map(1:n_rep1, ~boot_1_func(df = heroin))) %>%
  mutate(second_boot = map(first_boot, boot_2_func, reps = n_rep2)) 

8.4.0.1 Summarizing the double bootstrap

results

boot_2_stats %>%
  unnest(second_boot) %>%
  unnest(first_boot) 

## # A tibble: 476,000 × 12
##    resample1    id clinic status times prison  dose resample2 boot_med
##        <int> <dbl>  <dbl>  <dbl> <dbl>  <dbl> <dbl>     <int>    <dbl>
##  1         1   137      2      0   563      0    70         1      372
##  2         1    91      1      0   840      0    80         1      372
##  3         1   250      1      1   117      0    40         1      372
##  4         1   168      2      0   788      0    70         1      372
##  5         1    67      1      1   386      0    60         1      372
##  6         1     3      1      1   262      0    55         1      372
##  7         1   104      2      0   713      0    50         1      372
##  8         1   251      1      1   175      1    60         1      372
##  9         1    68      1      0   439      0    80         1      372
## 10         1   118      2      0   532      0    70         1      372
## # … with 475,990 more rows, and 3 more variables: boot_tr_mean <dbl>,
## #   boot_2_med <dbl>, boot_2_tr_mean <dbl>
…
boot_t_stats <- boot_2_stats %>%
  unnest(second_boot) %>%
  unnest(first_boot) %>%
  group_by(resample1) %>%
  summarize(boot_se_med = sd(boot_2_med),
            boot_se_tr_mean = sd(boot_2_tr_mean),
            boot_med = mean(boot_med),  # doesn't do anything, just copies over
            boot_tr_mean = mean(boot_tr_mean))  %>% # the variables into the output
  mutate(boot_t_med = (boot_med - mean(boot_med)) / boot_se_med,
            boot_t_tr_mean = (boot_tr_mean - mean(boot_tr_mean)) / boot_se_tr_mean)

boot_t_stats

## # A tibble: 100 × 7
##    resample1 boot_se_med boot_se_tr_mean boot_med boot_tr_mean boot_t_med
##        <int>       <dbl>           <dbl>    <dbl>        <dbl>      <dbl>
##  1         1        46.6            24.7     372          378.     0.0222
##  2         2        24.8            25.3     344          370.    -1.09  
##  3         3        36.9            24.2     372.         380.     0.0145
##  4         4        20.8            19.7     354          359.    -0.817 
##  5         5        30.1            22.0     308          331.    -2.09  
##  6         6        25.5            24.5     318          336.    -2.08  
##  7         7        24.9            20.3     367          378.    -0.159 
##  8         8        46.3            25.0     402          393.     0.670 
##  9         9        32.3            20.8     388.         380.     0.512 
## 10        10        18.1            15.1     381          384.     0.555 
## # … with 90 more rows, and 1 more variable: boot_t_tr_mean <dbl>
…
95% Bootstrap-t CI

Note that the t-value is needed (which requires a different SE for each bootstrap sample).

t-values

boot_t_stats %>%
  select(boot_t_med, boot_t_tr_mean)

## # A tibble: 100 × 2
##    boot_t_med boot_t_tr_mean
##         <dbl>          <dbl>
##  1     0.0222          0.140
##  2    -1.09           -0.160
##  3     0.0145          0.257
##  4    -0.817          -0.767
##  5    -2.09           -1.98 
##  6    -2.08           -1.56 
##  7    -0.159           0.202
##  8     0.670           0.764
##  9     0.512           0.280
## 10     0.555           0.625
## # … with 90 more rows
…
