Chapter 12 Diagnostic Measures II | Linear Models
…
oz_lm <- births14 %>%
  lm(weight ~ weeks + sex + term + gained + premie + 
       mage + whitemom + habit, data = .)

Per observation measures:

Most of the leverage and residual metrics are available directly from augment(). Some of the values come directly from the lm() (which would then need to be connected, via bind_cols(), to the other output, for example to create a residual plot).

oz_lm %>% augment() %>%
  select(.resid, .hat, .cooksd, .std.resid) %>%
  bind_cols(rstudent = oz_lm %>% rstudent())  %>%
  bind_cols(dffits = oz_lm %>% dffits()) %>%
  bind_cols(oz_lm %>% dfbetas())

## # A tibble: 941 × 16
##     .resid    .hat   .cooksd .std.resid rstudent  dffits `(Intercept)`    weeks
##      <dbl>   <dbl>     <dbl>      <dbl>    <dbl>   <dbl>         <dbl>    <dbl>
##  1 -0.321  0.00775 0.0000792    -0.318   -0.318  -0.0281     -0.00600   0.00690
##  2  1.38   0.00916 0.00174       1.37     1.37    0.132       0.0245   -0.0290 
##  3  0.882  0.0115  0.000891      0.876    0.876   0.0944      0.0195   -0.0182 
##  4 -1.00   0.0110  0.00110      -0.995   -0.995  -0.105      -0.000473 -0.0127 
##  5  0.502  0.0159  0.000403      0.500    0.500   0.0635     -0.0312    0.0300 
##  6 -0.774  0.00490 0.000290     -0.767   -0.767  -0.0538     -0.00937   0.00917
##  7  0.0901 0.0162  0.0000133     0.0898   0.0897  0.0115     -0.00562   0.00534
##  8 -1.56   0.00955 0.00232      -1.55    -1.55   -0.152       0.0288   -0.0252 
##  9  1.58   0.00434 0.00107       1.56     1.56    0.103       0.0169   -0.0205 
## 10  1.75   0.00776 0.00234       1.73     1.73    0.153       0.0265   -0.0177 
## # … with 931 more rows, and 8 more variables: sexmale <dbl>, termfull <dbl>,
## #   termlate <dbl>, gained <dbl>, premiepremie <dbl>, mage <dbl>,
## #   whitemomwhite <dbl>, habitsmoker <dbl>
…
