Chapter 9 Multiple Linear Regression | Linear Models
…
Note the p-values, parameter estimates, \(R^2\), MSE, F-stat, df, and F-stat p-values.

9.6 R: Model comparison with Restaurant tips4

A student collected data from a restaurant where she was a waitress (Dahlquist and Dong 2011). The student was interested in learning under what conditions a waitress can expect the largest tips—for example: At dinner time or late at night? From younger or older patrons? From patrons receiving free meals? From patrons drinking alcohol? From patrons tipping with cash or credit? And should tip amount be measured as total dollar amount or as a percentage?

Which variables help us predict the amount customers tip at a restaurant? Which model is best?

Instead of jumping into the predictions immediately, let’s look at the data itself. What wrangling can we do to the data in order to make the model accurate and easy to communicate?

## # A tibble: 169 × 4
##      Tip Party Meal   Age   
##    <dbl> <dbl> <chr>  <chr> 
##  1  2.99     1 Dinner Yadult
##  2  2        1 Dinner Yadult
##  3  5        1 Dinner SenCit
##  4  4        3 Dinner Middle
##  5 10.3      2 Dinner SenCit
##  6  4.85     2 Dinner Middle
##  7  5        4 Dinner Yadult
##  8  4        3 Dinner Middle
##  9  5        2 Dinner Middle
## 10  1.58     1 Dinner SenCit
## # … with 159 more rows
…
