Chapter 10 Modeling as a Process6 | Linear Models
…
Here in Chapter 10, the focus will be on algorithmic modeling and developing models which are optimally predictive of the response variable at hand.

Worth a comment

Notice that the R code has gotten more interesting now. How fun!! The R code will help the process! The R package tidymodels includes tools to facilitate, in particular, feature engineering and cross validation.

10.2 Feature Engineering

For the example used to consider feature engineering, the data come from data.world, by way of TidyTuesday. They now exist in the schrute R package.

Can the IMDB rating (imdb_rating) for The Office be predicted from the other variables in the dataset? Which model is best?

Instead of jumping into the predictions immediately, let’s look at the data itself. What wrangling can we do to the data in order to take advantage of all the information in the variables? We’d also like to make the model accurate and easy to communicate.

## # A tibble: 188 × 6
##    season episode title             imdb_rating total_votes air_date  
##     <dbl>   <dbl> <chr>                   <dbl>       <dbl> <date>    
##  1      1       1 Pilot                     7.6        3706 2005-03-24
##  2      1       2 Diversity Day             8.3        3566 2005-03-29
##  3      1       3 Health Care               7.9        2983 2005-04-05
##  4      1       4 The Alliance              8.1        2886 2005-04-12
##  5      1       5 Basketball                8.4        3179 2005-04-19
##  6      1       6 Hot Girl                  7.8        2852 2005-04-26
##  7      2       1 The Dundies               8.7        3213 2005-09-20
##  8      2       2 Sexual Harassment         8.2        2736 2005-09-27
##  9      2       3 Office Olympics           8.4        2742 2005-10-04
## 10      2       4 The Fire                  8.4        2713 2005-10-11
## # … with 178 more rows
…
## [1] 141   6

Step 3: Save testing data

office_test  <- testing(office_split)
dim(office_test)

## [1] 47  6

Using the training data

office_train

## # A tibble: 141 × 6
##    season episode title               imdb_rating total_votes air_date  
##     <dbl>   <dbl> <chr>                     <dbl>       <dbl> <date>    
##  1      8      18 Last Day in Florida         7.8        1429 2012-03-08
##  2      9      14 Vandalism                   7.6        1402 2013-01-31
##  3      2       8 Performance Review          8.2        2416 2005-11-15
##  4      9       5 Here Comes Treble           7.1        1515 2012-10-25
##  5      3      22 Beach Games                 9.1        2783 2007-05-10
##  6      7       1 Nepotism                    8.4        1897 2010-09-23
##  7      3      15 Phyllis' Wedding            8.3        2283 2007-02-08
##  8      9      21 Livin' the Dream            8.9        2041 2013-05-02
##  9      9      18 Promos                      8          1445 2013-04-04
## 10      8      12 Pool Party                  8          1612 2012-01-19
## # … with 131 more rows
…
Feature engineering allows us to get creative with our predictors in an effort to make them more useful for our model (to increase its predictive performance).

Feature engineering with dplyr

We can use the dplyr (in tidyverse) and, for example, the mutate() function to create new variables to use in the models.

office_train %>%
  mutate(
    season = as_factor(season),
    month = lubridate::month(air_date),
    wday = lubridate::wday(air_date)
  )

## # A tibble: 141 × 8
##   season episode title            imdb_rating total_votes air_date   month  wday
##   <fct>    <dbl> <chr>                  <dbl>       <dbl> <date>     <dbl> <dbl>
## 1 8           18 Last Day in Flo…         7.8        1429 2012-03-08     3     5
## 2 9           14 Vandalism                7.6        1402 2013-01-31     1     5
## 3 2            8 Performance Rev…         8.2        2416 2005-11-15    11     3
## 4 9            5 Here Comes Treb…         7.1        1515 2012-10-25    10     5
## 5 3           22 Beach Games              9.1        2783 2007-05-10     5     5
## 6 7            1 Nepotism                 8.4        1897 2010-09-23     9     5
## # … with 135 more rows
…
10.2.6 Evaluate the model

Predictions for training data

office_train_pred <- predict(office_fit, office_train) %>%
  bind_cols(office_train %>% select(imdb_rating, title))

office_train_pred

## # A tibble: 141 × 3
##    .pred imdb_rating title              
##    <dbl>       <dbl> <chr>              
##  1  7.57         7.8 Last Day in Florida
##  2  7.77         7.6 Vandalism          
##  3  8.31         8.2 Performance Review 
##  4  7.67         7.1 Here Comes Treble  
##  5  8.84         9.1 Beach Games        
##  6  8.33         8.4 Nepotism           
##  7  8.46         8.3 Phyllis' Wedding   
##  8  8.14         8.9 Livin' the Dream   
##  9  7.87         8   Promos             
## 10  7.74         8   Pool Party         
## # … with 131 more rows
…
But, really…

who cares about predictions on training data?

Predictions for testing data

office_test_pred <- predict(office_fit, office_test) %>%
  bind_cols(office_test %>% select(imdb_rating, title))

office_test_pred

## # A tibble: 47 × 3
##    .pred imdb_rating title              
##    <dbl>       <dbl> <chr>              
##  1  8.03         8.3 Diversity Day      
##  2  7.98         7.9 Health Care        
##  3  8.41         8.4 The Fire           
##  4  8.35         8.2 Halloween          
##  5  8.35         8.4 E-Mail Surveillance
##  6  8.68         9   The Injury         
##  7  8.32         7.9 The Carpet         
##  8  8.93         9.3 Casino Night       
##  9  8.80         8.9 Gay Witch Hunt     
## 10  8.37         8.2 Initiation         
## # … with 37 more rows
…
