Chapter 4 Simple Linear Regression | Linear Models
…
Credit %>%
  lm(Balance ~ Limit, data = .) %>%
  glance()

## # A tibble: 1 × 12
##   r.squared adj.r.squared sigma statistic   p.value    df logLik   AIC   BIC
##       <dbl>         <dbl> <dbl>     <dbl>     <dbl> <dbl>  <dbl> <dbl> <dbl>
## 1     0.743         0.742  234.     1148. 2.53e-119     1 -2748. 5502. 5514.
## # … with 3 more variables: deviance <dbl>, df.residual <int>, nobs <int>

Credit %>%
  lm(Balance ~ Limit, data = .) %>%
  augment()

## # A tibble: 400 × 8
##    Balance Limit .fitted  .resid    .hat .sigma     .cooksd .std.resid
##      <int> <int>   <dbl>   <dbl>   <dbl>  <dbl>       <dbl>      <dbl>
##  1     333  3606    326.    6.87 0.00310   234. 0.00000135      0.0294
##  2     903  6645    848.   55.3  0.00422   234. 0.000119        0.237 
##  3     580  7075    922. -342.   0.00507   233. 0.00548        -1.47  
##  4     964  9504   1338. -374.   0.0132    233. 0.0174         -1.61  
##  5     331  4897    548. -217.   0.00251   234. 0.00109        -0.929 
##  6    1151  8047   1088.   62.6  0.00766   234. 0.000280        0.269 
##  7     203  3388    289.  -85.7  0.00335   234. 0.000227       -0.368 
##  8     872  7114    928.  -56.2  0.00516   234. 0.000151       -0.241 
##  9     279  3300    274.    5.39 0.00347   234. 0.000000929     0.0231
## 10    1350  6819    878.  472.   0.00454   233. 0.00937         2.03  
## # … with 390 more rows
…
