Chapter 15 Smoothing Methods | Linear Models
…
wind_lm <- linear_reg() %>%
  set_engine("lm")

wind_df <- grid_regular(deg_free(range = c(5, 15)), 
                        degree(range = c(1,5)) , levels = 5)

wind_tuned <- wind_lm %>%
  tune_grid(wind_rec,
            resamples = wind_cv,
            grid = wind_df)

collect_metrics(wind_tuned)

## # A tibble: 50 × 8
##    deg_free degree .metric .estimator  mean     n std_err .config              
##       <int>  <dbl> <chr>   <chr>      <dbl> <int>   <dbl> <chr>                
##  1        5      1 rmse    standard   0.874     5 0.0337  Preprocessor01_Model1
##  2        5      1 rsq     standard   0.887     5 0.00967 Preprocessor01_Model1
##  3        7      1 rmse    standard   0.771     5 0.0227  Preprocessor02_Model1
##  4        7      1 rsq     standard   0.913     5 0.00666 Preprocessor02_Model1
##  5       10      1 rmse    standard   0.711     5 0.0244  Preprocessor03_Model1
##  6       10      1 rsq     standard   0.925     5 0.00643 Preprocessor03_Model1
##  7       12      1 rmse    standard   0.722     5 0.0286  Preprocessor04_Model1
##  8       12      1 rsq     standard   0.922     5 0.00766 Preprocessor04_Model1
##  9       15      1 rmse    standard   0.683     5 0.0441  Preprocessor05_Model1
## 10       15      1 rsq     standard   0.930     5 0.00965 Preprocessor05_Model1
## # … with 40 more rows
…
Apply loess smoothing using the default span value of 0.75.

y_loess <- loess(y ~ x, span=0.2, data = sine_unif_data)

Compute loess smoothed values for all points along the curve using `augment().

y_loess %>% augment()

## # A tibble: 120 × 4
##         y     x .fitted  .resid
##     <dbl> <int>   <dbl>   <dbl>
##  1  1.01      1   0.558  0.448 
##  2 -0.148     2   0.550 -0.697 
##  3  0.679     3   0.543  0.136 
##  4  0.853     4   0.540  0.312 
##  5  0.406     5   0.542 -0.136 
##  6  0.692     6   0.547  0.144 
##  7  0.136     7   0.554 -0.417 
##  8  0.345     8   0.560 -0.215 
##  9  0.541     9   0.571 -0.0303
## 10  1.35     10   0.589  0.761 
## # … with 110 more rows
…
