Data Science, the SQL - 1 Databases
…
With the carriers data, it is possible, however, to load the entire object into R using collect(). Now, when the data are printed to screen, the object is a tibble and R knows that it has 1,610 rows.

carriers |>
  collect() 

# A tibble: 1,610 × 2
  carrier name                         
  <chr>   <chr>                        
1 02Q     Titan Airways                
2 04Q     Tradewind Aviation           
3 05Q     Comlux Aviation, AG          
4 06Q     Master Top Linhas Aereas Ltd.
5 07Q     Flair Airlines Ltd.          
6 09Q     Swift Air, LLC               
# ℹ 1,604 more rows
…
