Data Science, the SQL - 2 SQL in R and DBeaver
…
As might be expected, dbplyr doesn’t translate every R command into SQL. After all, SQL is not a statistical software and doesn’t, for example, have a mechanism for creating data visualizations. To track which R commands are connected to SQL see the dbplyr reference sheet.

Because the data set has been subsetted substantially, we could pull it into R to create an R object. Note that now R is aware of the size of the entire data frame (7064 rows and 21 columns). The la_bos object now exists in the R environment and can be explored through the IDE.

 Watch out!

Be careful with collect(). Don’t use collect() on large data frames that won’t fit in an R environment.

la_bos <- la_bos |>
  collect()

la_bos

# A tibble: 7,064 × 21
   year month   day dep_time sched_dep_time dep_delay arr_time sched_arr_time
  <int> <int> <int>    <int>          <int>     <int>    <int>          <int>
1  2012    10     1      710            710         0     1538           1540
2  2012    10     1      818            820        -2     1644           1645
3  2012    10     1      855            844        11     1742           1712
4  2012    10     1     1219           1210         9     2043           2038
5  2012    10     1     1302           1300         2     2133           2125
6  2012    10     1     1436           1445        -9     2331           2309
# ℹ 7,058 more rows
# ℹ 13 more variables: arr_delay <int>, carrier <chr>, tailnum <chr>,
#   flight <int>, origin <chr>, dest <chr>, air_time <int>, distance <int>,
#   cancelled <int>, diverted <int>, hour <int>, minute <int>, time_hour <dttm>
…
