Methods in Biostatistics
…
happy.lm = lm(LifeExpectancy ~ Happiness, data=happy) 

happy.lm %>% tidy()
#> # A tibble: 2 x 5
#>   term        estimate std.error statistic  p.value
#>   <chr>          <dbl>     <dbl>     <dbl>    <dbl>
#> 1 (Intercept)    28.2      2.28       12.4 2.76e-24
#> 2 Happiness       6.69     0.375      17.8 5.78e-38

3.7.3 Ouptut

Some analyses will need the residuals, fitted values, or coefficients individually.

happy.lm %>% augment()
#> # A tibble: 143 x 8
#>   LifeExpectancy Happiness .fitted  .resid    .hat .sigma   .cooksd .std.resid
#>            <dbl>     <dbl>   <dbl>   <dbl>   <dbl>  <dbl>     <dbl>      <dbl>
#> 1           76.2       5.5    65.0  11.2   0.00765   6.09 0.0128        1.83  
#> 2           71.7       5.6    65.7   6.00  0.00737   6.14 0.00357       0.980 
#> 3           41.7       4.3    57.0 -15.3   0.0168    6.02 0.0539       -2.51  
#> 4           74.8       7.1    75.7  -0.944 0.0122    6.16 0.000148     -0.155 
#> 5           71.7       5      61.7  10.0   0.0101    6.10 0.0138        1.64  
#> 6           80.9       7.9    81.1  -0.198 0.0216    6.16 0.0000118    -0.0326
#> # … with 137 more rows
…
happy.lm %>% tidy(conf.int = TRUE)
#> # A tibble: 2 x 7
#>   term        estimate std.error statistic  p.value conf.low conf.high
#>   <chr>          <dbl>     <dbl>     <dbl>    <dbl>    <dbl>     <dbl>
#> 1 (Intercept)    28.2      2.28       12.4 2.76e-24    23.7      32.7 
#> 2 Happiness       6.69     0.375      17.8 5.78e-38     5.95      7.43

3.7.3.1 Residuals in R

We skipped the residuals section, so you are not responsible for finding residuals in R, but the R code is here for completion in case you are interested:

happy.lm %>% augment()
#> # A tibble: 143 x 8
#>   LifeExpectancy Happiness .fitted  .resid    .hat .sigma   .cooksd .std.resid
#>            <dbl>     <dbl>   <dbl>   <dbl>   <dbl>  <dbl>     <dbl>      <dbl>
#> 1           76.2       5.5    65.0  11.2   0.00765   6.09 0.0128        1.83  
#> 2           71.7       5.6    65.7   6.00  0.00737   6.14 0.00357       0.980 
#> 3           41.7       4.3    57.0 -15.3   0.0168    6.02 0.0539       -2.51  
#> 4           74.8       7.1    75.7  -0.944 0.0122    6.16 0.000148     -0.155 
#> 5           71.7       5      61.7  10.0   0.0101    6.10 0.0138        1.64  
#> 6           80.9       7.9    81.1  -0.198 0.0216    6.16 0.0000118    -0.0326
#> # … with 137 more rows
…
5.8.2 Difference between tidy and augment and glance

Note that tidy contains the same number of rows as the number of coefficients. augment contains the same number of rows as number of observations. glance always has one row (containing overall model information).

glm(`Closed?` ~ Length, data = nests, family="binomial") %>% tidy()
#> # A tibble: 2 x 5
#>   term        estimate std.error statistic p.value
#>   <chr>          <dbl>     <dbl>     <dbl>   <dbl>
#> 1 (Intercept)   0.457     0.753      0.607   0.544
#> 2 Length       -0.0677    0.0425    -1.59    0.112
glm(`Closed?` ~ Length, data = nests, family="binomial") %>% augment()
#> # A tibble: 95 x 9
#>   .rownames `Closed?` Length .fitted .resid .std.resid   .hat .sigma .cooksd
#>   <chr>         <dbl>  <dbl>   <dbl>  <dbl>      <dbl>  <dbl>  <dbl>   <dbl>
#> 1 1                 0   20    -0.896 -0.827     -0.833 0.0137   1.12 0.00288
#> 2 2                 1   20    -0.896  1.57       1.58  0.0137   1.11 0.0173 
#> 3 4                 1   20    -0.896  1.57       1.58  0.0137   1.11 0.0173 
#> 4 5                 1   22.5  -1.07   1.65       1.67  0.0202   1.11 0.0305 
#> 5 6                 0   18.5  -0.795 -0.863     -0.868 0.0116   1.12 0.00267
#> 6 7                 1   17    -0.693  1.48       1.49  0.0110   1.12 0.0112 
#> # … with 89 more rows
…
glm(`Closed?` ~ Length, data = nests, family="binomial") %>% tidy()
#> # A tibble: 2 x 5
#>   term        estimate std.error statistic p.value
#>   <chr>          <dbl>     <dbl>     <dbl>   <dbl>
#> 1 (Intercept)   0.457     0.753      0.607   0.544
#> 2 Length       -0.0677    0.0425    -1.59    0.112
glm(`Closed?` ~ Length, data = nests, family="binomial") %>% glance() %>%
  print.data.frame(digits=6)
#>   null.deviance df.null   logLik    AIC     BIC deviance df.residual nobs
#> 1       119.992      94 -58.4399 120.88 125.987   116.88          93   95

Length as a categorical explanatory variables:

glm(`Closed?` ~ as.factor(Length), data = nests, family="binomial") %>% tidy()
#> # A tibble: 34 x 5
#>   term                       estimate std.error statistic p.value
#>   <chr>                         <dbl>     <dbl>     <dbl>   <dbl>
#> 1 (Intercept)            19.6            10754.  1.82e- 3   0.999
#> 2 as.factor(Length)10     0.000000432    13171.  3.28e-11   1.00 
#> 3 as.factor(Length)10.5   0.000000430    15208.  2.82e-11   1.00 
#> 4 as.factor(Length)11   -18.9            10754. -1.75e- 3   0.999
#> 5 as.factor(Length)12   -21.2            10754. -1.97e- 3   0.998
#> 6 as.factor(Length)12.5   0.000000431    15208.  2.83e-11   1.00 
#> # … with 28 more rows
…
(#fig:unnamed-chunk-7)Table 7.1 from Collett (2015).

Table 7.2

As our next step, we can consider adding gender as a multiplicative effect to our model. \[
\begin{align*}
h_i(t) &= h_0(t) \exp \bigg\{ \sum_{j=2}^7 \beta_j
dbp_{ij} + \gamma male_i \bigg\}
\end{align*}
\] We say the effects are multiplicative because we are adding in the exponent, so any effect due to gender will be multiplied with the effect due to dbp. How do we tell - from the results - that interaction wasn’t modeled? Look at the hazard ratios, are they consistent when comparing one variable and keeping the other one constant? That is, check to see if the HR for two different levels of dbp is the same regardless of whether men or women are considered.

The change in deviance is 133 (\(H_0: \gamma =0\)), so with one degree of freedom, the p-value is very small. We do not think that \(\gamma=0\), so we need gender in the model.

coxph(Surv(followup,chdfate) ~ sex + dbpf, data = heart) %>% tidy()
#> # A tibble: 7 x 5
#>   term        estimate std.error statistic  p.value
#>   <chr>          <dbl>     <dbl>     <dbl>    <dbl>
#> 1 sexmale        0.606    0.0528     11.5  1.54e-30
#> 2 dbpf60-70      0.648    0.247       2.62 8.74e- 3
#> 3 dbpf70-80      0.888    0.241       3.69 2.27e- 4
#> 4 dbpf80-90      1.02     0.241       4.24 2.25e- 5
#> 5 dbpf90-100     1.40     0.243       5.76 8.48e- 9
#> 6 dbpf100-110    1.79     0.254       7.02 2.29e-12
#> # … with 1 more row
…
Table 7.3 Considering gender and dbp interacting. \[
\begin{align*}
h_i(t) &= h_0(t) \exp \bigg\{ \sum_{j=2}^7 \beta_j
dbp_{ij} + \gamma male_i + \sum_{j=2}^7 \delta_j dbp_{ij}
male_i \bigg\}
\end{align*}
\]

The change in deviance is 21.23 (\(H_0: \delta_j =0\)), so with six degrees of freedom, the p-value is 0.002. The evidence of interaction is statistically significant.

Note the marked differences between the estimates in table 7.2 and 7.3. The interactive model indicates that the effect of gender on the risk of CHD is greatest for people with low or moderate blood pressure and diminishes as blood pressure rises. Gender appears to have no effect on CHD for people with a DBP above 110 mm Hg.

coxph(Surv(followup,chdfate) ~ sex*dbpf, data = heart) %>% tidy()
#> # A tibble: 13 x 5
#>   term        estimate std.error statistic      p.value
#>   <chr>          <dbl>     <dbl>     <dbl>        <dbl>
#> 1 sexmale        0.864     0.471      1.83 0.0668      
#> 2 dbpf60-70      0.603     0.352      1.71 0.0866      
#> 3 dbpf70-80      0.887     0.342      2.60 0.00944     
#> 4 dbpf80-90      1.26      0.341      3.68 0.000230    
#> 5 dbpf90-100     1.55      0.347      4.46 0.00000829  
#> 6 dbpf100-110    2.03      0.358      5.67 0.0000000141
#> # … with 7 more rows
…
The HR in Table 7.4 are substantially smaller than those in Table 7.3. It is important to realize that the HR in Table 7.4 compare people of the same age, body mass index, and serum cholesterol, while those of Table 7.3 compare people without regard to other variables. It is not surprising that the unadjusted HR are inflated due to the confounding variables.

Goal: to predict CHD \(\rightarrow\) because it’s easier to measure blood pressure than cholesterol, we may just prefer to use the unadjusted model.

Goal: to establish a causal link \(\rightarrow\) we must adjust for all possible confounding variables.

When should we transform a continuous variable into a factor variable?

continuous If we believe that the relationship is linear in log(HR)

factor If the relationship is not linear. Although keep in mind that there can be lots of coefficients to estimate when we make factor variables, so we lose df.

coxph(Surv(followup,chdfate) ~ dbpf * sex + age + bmi + scl, data = heart) %>% tidy()
#> # A tibble: 16 x 5
#>   term        estimate std.error statistic   p.value
#>   <chr>          <dbl>     <dbl>     <dbl>     <dbl>
#> 1 dbpf60-70      0.415     0.352      1.18 0.238    
#> 2 dbpf70-80      0.503     0.343      1.47 0.142    
#> 3 dbpf80-90      0.648     0.344      1.89 0.0592   
#> 4 dbpf90-100     0.661     0.351      1.88 0.0599   
#> 5 dbpf100-110    1.13      0.363      3.12 0.00183  
#> 6 dbpfover110    1.66      0.377      4.40 0.0000107
#> # … with 10 more rows
…
