…
### Ouptut

Some analyses will need the residuals, fitted values, or coefficients individually.

```r
happy.lm %>% augment()
```

```
## # A tibble: 143 x 8
##    LifeExpectancy Happiness .fitted  .resid .std.resid    .hat .sigma   .cooksd
##             <dbl>     <dbl>   <dbl>   <dbl>      <dbl>   <dbl>  <dbl>     <dbl>
##  1           76.2       5.5    65.0  11.2       1.83   0.00765   6.09 0.0128   
##  2           71.7       5.6    65.7   6.00      0.980  0.00737   6.14 0.00357  
##  3           41.7       4.3    57.0 -15.3      -2.51   0.0168    6.02 0.0539   
##  4           74.8       7.1    75.7  -0.944    -0.155  0.0122    6.16 0.000148 
##  5           71.7       5      61.7  10.0       1.64   0.0101    6.10 0.0138   
##  6           80.9       7.9    81.1  -0.198    -0.0326 0.0216    6.16 0.0000118
##  7           79.4       7.8    80.4  -1.03     -0.169  0.0202    6.16 0.000295 
##  8           67.1       5.3    63.7   3.40      0.557  0.00842   6.16 0.00132  
##  9           63.1       5.3    63.7  -0.596    -0.0975 0.00842   6.16 0.0000404
## 10           68.7       5.8    67.0   1.66      0.271  0.00705   6.16 0.000260 
## # … with 133 more rows
```
…
  
#### Residuals in R

We skipped the residuals section, so you are not responsible for finding residuals in R, but the R code is here for completion in case you are interested:
  


```r
happy.lm %>% augment()
```

```
## # A tibble: 143 x 8
##    LifeExpectancy Happiness .fitted  .resid .std.resid    .hat .sigma   .cooksd
##             <dbl>     <dbl>   <dbl>   <dbl>      <dbl>   <dbl>  <dbl>     <dbl>
##  1           76.2       5.5    65.0  11.2       1.83   0.00765   6.09 0.0128   
##  2           71.7       5.6    65.7   6.00      0.980  0.00737   6.14 0.00357  
##  3           41.7       4.3    57.0 -15.3      -2.51   0.0168    6.02 0.0539   
##  4           74.8       7.1    75.7  -0.944    -0.155  0.0122    6.16 0.000148 
##  5           71.7       5      61.7  10.0       1.64   0.0101    6.10 0.0138   
##  6           80.9       7.9    81.1  -0.198    -0.0326 0.0216    6.16 0.0000118
##  7           79.4       7.8    80.4  -1.03     -0.169  0.0202    6.16 0.000295 
##  8           67.1       5.3    63.7   3.40      0.557  0.00842   6.16 0.00132  
##  9           63.1       5.3    63.7  -0.596    -0.0975 0.00842   6.16 0.0000404
## 10           68.7       5.8    67.0   1.66      0.271  0.00705   6.16 0.000260 
## # … with 133 more rows
```
