…
* **Table 7.2**  
As our next step, we can consider adding gender as a *multiplicative effect* to our model.
\begin{eqnarray*}
h_i(t) &=& h_0(t) \exp \bigg\{ \sum_{j=2}^7 \beta_j dbp_{ij} + \gamma male_i \bigg\}
\end{eqnarray*}
We say the effects are multiplicative because we are adding in the exponent, so any effect due to gender will be multiplied with the effect due to dbp.  How do we tell - from the results - that interaction wasn't modeled?  Look at the hazard ratios, are they consistent when comparing one variable and keeping the other one constant?  That is, check to see if the HR for two different levels of dbp is the same regardless of whether men or women are considered.


     * The change in deviance is 133 ($H_0: \gamma =0$), so with one degree of freedom, the p-value is very small. We do not think that $\gamma=0$, so we need gender in the model.


```r
coxph(Surv(followup,chdfate) ~ dbpf + sex, data = heart) %>% tidy()
#> # A tibble: 7 x 5
#>   term        estimate std.error statistic  p.value
#>   <chr>          <dbl>     <dbl>     <dbl>    <dbl>
#> 1 dbpf60-70      0.648     0.247      2.62 8.74e- 3
#> 2 dbpf70-80      0.888     0.241      3.69 2.27e- 4
#> 3 dbpf80-90      1.02      0.241      4.24 2.25e- 5
#> 4 dbpf90-100     1.40      0.243      5.76 8.48e- 9
#> 5 dbpf100-110    1.79      0.254      7.02 2.29e-12
#> 6 dbpfover110    2.22      0.271      8.17 2.97e-16
#> # … with 1 more row
```

* **Table 7.3** 
Considering gender and dbp interacting.
\begin{eqnarray*}
h_i(t) &=& h_0(t) \exp \bigg\{ \sum_{j=2}^7 \beta_j dbp_{ij} + \gamma male_i + \sum_{j=2}^7 \delta_j dbp_{ij} male_i \bigg\}
\end{eqnarray*}


    * The change in deviance is 21.23 ($H_0: \delta_j =0$), so with six degrees of freedom, the p-value is 0.002.  The evidence of interaction is statistically significant.  
    * Note the marked differences between the estimates in table 7.2 and 7.3.  The interactive model indicates that the effect of gender on the risk of CHD is greatest for people with low or moderate blood pressure and diminishes as blood pressure rises.  Gender appears to have no effect on CHD for people with a DBP above 110 mm Hg.  


```r
coxph(Surv(followup,chdfate) ~ dbpf * sex, data = heart) %>% tidy()
#> # A tibble: 13 x 5
#>   term        estimate std.error statistic  p.value
#>   <chr>          <dbl>     <dbl>     <dbl>    <dbl>
#> 1 dbpf60-70      0.603     0.352      1.71 8.66e- 2
#> 2 dbpf70-80      0.887     0.342      2.60 9.44e- 3
#> 3 dbpf80-90      1.26      0.341      3.68 2.30e- 4
#> 4 dbpf90-100     1.55      0.347      4.46 8.29e- 6
#> 5 dbpf100-110    2.03      0.358      5.67 1.41e- 8
#> 6 dbpfover110    2.61      0.372      7.02 2.18e-12
#> # … with 7 more rows
```
…
    * We need $\theta_1, \theta_2, \theta_3$, as they are all statistically significant.  
    * The HR in Table 7.4 are substantially smaller than those in Table 7.3.  It is important to realize that the HR in Table 7.4 compare people of the same age, body mass index, and serum cholesterol, while those of Table 7.3 compare people without regard to other variables.  It is not surprising that the unadjusted HR are inflated due to the confounding variables.    
    * Goal: to predict CHD $\rightarrow$ because it's easier to measure blood pressure than cholesterol, we may just prefer to use the unadjusted model.  
    * Goal: to establish a causal link $\rightarrow$ we *must* adjust for all possible confounding variables.  

When should we transform a continuous variable into a factor variable?

* **continuous** If we believe that the relationship is linear in log(HR)  
* **factor** There are lots of coefficients to estimate, so we lose df  


```r
coxph(Surv(followup,chdfate) ~ dbpf * sex + age + bmi + scl, data = heart) %>% tidy()
#> # A tibble: 16 x 5
#>   term        estimate std.error statistic   p.value
#>   <chr>          <dbl>     <dbl>     <dbl>     <dbl>
#> 1 dbpf60-70      0.415     0.352      1.18 0.238    
#> 2 dbpf70-80      0.503     0.343      1.47 0.142    
#> 3 dbpf80-90      0.648     0.344      1.89 0.0592   
#> 4 dbpf90-100     0.661     0.351      1.88 0.0599   
#> 5 dbpf100-110    1.13      0.363      3.12 0.00183  
#> 6 dbpfover110    1.66      0.377      4.40 0.0000107
#> # … with 10 more rows
```
…
