Chapter 6 Logistic Regression | Methods in Biostatistics
…
6.8.2 Difference between tidy and augment and glance

Note that tidy contains the same number of rows as the number of coefficients. augment contains the same number of rows as number of observations. glance always has one row (containing overall model information).

glm(`Closed?` ~ Length, data = nests, family="binomial") %>% tidy()
#> # A tibble: 2 × 5
#>   term        estimate std.error statistic p.value
#>   <chr>          <dbl>     <dbl>     <dbl>   <dbl>
#> 1 (Intercept)   0.457     0.753      0.607   0.544
#> 2 Length       -0.0677    0.0425    -1.59    0.112
glm(`Closed?` ~ Length, data = nests, family="binomial") %>% augment()
#> # A tibble: 95 × 9
#>   .rownames `Closed?` Length .fitted .resid .std.resid   .hat .sigma .cooksd
#>   <chr>         <dbl>  <dbl>   <dbl>  <dbl>      <dbl>  <dbl>  <dbl>   <dbl>
#> 1 1                 0   20    -0.896 -0.827     -0.833 0.0137   1.12 0.00288
#> 2 2                 1   20    -0.896  1.57       1.58  0.0137   1.11 0.0173 
#> 3 4                 1   20    -0.896  1.57       1.58  0.0137   1.11 0.0173 
#> 4 5                 1   22.5  -1.07   1.65       1.67  0.0202   1.11 0.0305 
#> 5 6                 0   18.5  -0.795 -0.863     -0.868 0.0116   1.12 0.00267
#> 6 7                 1   17    -0.693  1.48       1.49  0.0110   1.12 0.0112 
#> # … with 89 more rows
…
glm(`Closed?` ~ Length, data = nests, family="binomial") %>% tidy()
#> # A tibble: 2 × 5
#>   term        estimate std.error statistic p.value
#>   <chr>          <dbl>     <dbl>     <dbl>   <dbl>
#> 1 (Intercept)   0.457     0.753      0.607   0.544
#> 2 Length       -0.0677    0.0425    -1.59    0.112
glm(`Closed?` ~ Length, data = nests, family="binomial") %>% glance() %>%
  print.data.frame(digits=6)
#>   null.deviance df.null   logLik    AIC     BIC deviance df.residual nobs
#> 1       119.992      94 -58.4399 120.88 125.987   116.88          93   95

Length as a categorical explanatory variables:

glm(`Closed?` ~ as.factor(Length), data = nests, family="binomial") %>% tidy()
#> # A tibble: 34 × 5
#>   term                       estimate std.error statistic p.value
#>   <chr>                         <dbl>     <dbl>     <dbl>   <dbl>
#> 1 (Intercept)            19.6            10754.  1.82e- 3   0.999
#> 2 as.factor(Length)10     0.000000432    13171.  3.28e-11   1.00 
#> 3 as.factor(Length)10.5   0.000000430    15208.  2.82e-11   1.00 
#> 4 as.factor(Length)11   -18.9            10754. -1.75e- 3   0.999
#> 5 as.factor(Length)12   -21.2            10754. -1.97e- 3   0.998
#> 6 as.factor(Length)12.5   0.000000431    15208.  2.83e-11   1.00 
#> # … with 28 more rows
…
