Chapter 7 Modeling as a Process | Methods in Biostatistics
…
feeder_train <- training(feeder_split)
dim(feeder_train)
#> [1] 176763     59

Step 3: Save testing data

feeder_test  <- testing(feeder_split)
dim(feeder_test)
#> [1] 58922    59

Using the training data

feeder_train
#> # A tibble: 176,763 × 59
#>   squirrels    yard_ty…¹ yard_…² yard_…³ yard_…⁴ yard_…⁵ hab_d…⁶ hab_e…⁷ hab_m…⁸
#>   <fct>            <dbl>   <dbl>   <dbl>   <dbl>   <dbl>   <dbl>   <dbl>   <dbl>
#> 1 no squirrels         0       0       1       0       0       1      NA       1
#> 2 no squirrels         0       0       1       0       0       1      NA       1
#> 3 no squirrels         0       0       1       0       0       1       0       1
#> 4 no squirrels         0       0       1       0       0       1      NA      NA
#> 5 no squirrels         0       0       1       1       0       1       0       0
#> 6 no squirrels         0       0       1       0       0       1      NA       1
#> # … with 176,757 more rows, 50 more variables: hab_orchard <dbl>,
#> #   hab_park <dbl>, hab_water_fresh <dbl>, hab_water_salt <dbl>,
#> #   hab_residential <dbl>, hab_industrial <dbl>, hab_agricultural <dbl>,
#> #   hab_desert_scrub <dbl>, hab_young_woods <dbl>, hab_swamp <dbl>,
#> #   hab_marsh <dbl>, evgr_trees_atleast <dbl>, evgr_shrbs_atleast <dbl>,
#> #   dcid_trees_atleast <dbl>, dcid_shrbs_atleast <dbl>,
#> #   fru_trees_atleast <dbl>, cacti_atleast <dbl>, brsh_piles_atleast <dbl>, …
…
Fit model to training data

With the workflow in hand, the model can now be fit to the training data. Although, wow… there are so many predictors!

feeder_fit <- feeder_wflow %>%
  fit(data = feeder_train)

feeder_fit %>% tidy() %>% print(n = 21)
#> # A tibble: 59 × 5
#>    term               estimate std.error statistic   p.value
#>    <chr>                 <dbl>     <dbl>     <dbl>     <dbl>
#>  1 (Intercept)         -1.42     0.0505    -28.2   2.26e-174
#>  2 yard_type_pavement  -0.854    0.149      -5.74  9.23e-  9
#>  3 yard_type_garden    -0.175    0.0392     -4.47  7.89e-  6
#>  4 yard_type_landsca    0.168    0.0219      7.69  1.45e- 14
#>  5 yard_type_woods      0.309    0.0170     18.1   1.59e- 73
#>  6 yard_type_desert    -0.297    0.0789     -3.76  1.68e-  4
#>  7 hab_dcid_woods       0.336    0.0161     20.9   6.55e- 97
#>  8 hab_evgr_woods      -0.0797   0.0192     -4.15  3.36e-  5
#>  9 hab_mixed_woods      0.420    0.0158     26.5   3.17e-155
#> 10 hab_orchard         -0.307    0.0252    -12.2   4.00e- 34
#> 11 hab_park             0.0614   0.0192      3.20  1.36e-  3
#> 12 hab_water_fresh      0.0638   0.0157      4.07  4.79e-  5
#> 13 hab_water_salt      -0.320    0.0331     -9.67  4.03e- 22
#> 14 hab_residential      0.197    0.0208      9.51  1.88e- 21
#> 15 hab_industrial      -0.0365   0.0191     -1.91  5.61e-  2
#> 16 hab_agricultural    -0.578    0.0179    -32.3   2.87e-228
#> 17 hab_desert_scrub    -0.557    0.0240    -23.2   2.42e-119
#> 18 hab_young_woods      0.0874   0.0186      4.70  2.63e-  6
#> 19 hab_swamp            0.406    0.0223     18.2   5.54e- 74
#> 20 hab_marsh           -0.0149   0.0231     -0.644 5.20e-  1
#> 21 evgr_trees_atleast   0.0405   0.00220    18.4   1.44e- 75
#> # … with 38 more rows
…
Deeper look into CV metrics

Model 1:

cv_metrics1 <- collect_metrics(feeder_fit_rs1, summarize = FALSE) 

cv_metrics1
#> # A tibble: 12 × 5
#>   id    .metric     .estimator .estimate .config             
#>   <chr> <chr>       <chr>          <dbl> <chr>               
#> 1 Fold1 accuracy    binary        0.810  Preprocessor1_Model1
#> 2 Fold1 sensitivity binary        0.996  Preprocessor1_Model1
#> 3 Fold1 specificity binary        0.0275 Preprocessor1_Model1
#> 4 Fold1 roc_auc     binary        0.666  Preprocessor1_Model1
#> 5 Fold2 accuracy    binary        0.809  Preprocessor1_Model1
#> 6 Fold2 sensitivity binary        0.995  Preprocessor1_Model1
#> # … with 6 more rows

Model 2:

cv_metrics2 <- collect_metrics(feeder_fit_rs2, summarize = FALSE) 

cv_metrics2
#> # A tibble: 12 × 5
#>   id    .metric     .estimator .estimate .config             
#>   <chr> <chr>       <chr>          <dbl> <chr>               
#> 1 Fold1 accuracy    binary        0.813  Preprocessor1_Model1
#> 2 Fold1 sensitivity binary        0.990  Preprocessor1_Model1
#> 3 Fold1 specificity binary        0.0687 Preprocessor1_Model1
#> 4 Fold1 roc_auc     binary        0.699  Preprocessor1_Model1
#> 5 Fold2 accuracy    binary        0.812  Preprocessor1_Model1
#> 6 Fold2 sensitivity binary        0.989  Preprocessor1_Model1
#> # … with 6 more rows
…
feeder_wflow2 <- workflow() %>%
  add_model(feeder_spec) %>%
  add_recipe(feeder_rec2)

7.6.5 Choice: fit the model? cross validate to decide between models?

Fit the model

feeder_fit <- feeder_wflow %>%
  fit(data = feeder_train)

The fit object is the same as the output of glm() that you are used to working with:

feeder_fit %>% tidy()
#> # A tibble: 59 × 5
#>   term               estimate std.error statistic   p.value
#>   <chr>                 <dbl>     <dbl>     <dbl>     <dbl>
#> 1 (Intercept)          -1.42     0.0505    -28.2  2.26e-174
#> 2 yard_type_pavement   -0.854    0.149      -5.74 9.23e-  9
#> 3 yard_type_garden     -0.175    0.0392     -4.47 7.89e-  6
#> 4 yard_type_landsca     0.168    0.0219      7.69 1.45e- 14
#> 5 yard_type_woods       0.309    0.0170     18.1  1.59e- 73
#> 6 yard_type_desert     -0.297    0.0789     -3.76 1.68e-  4
#> # … with 53 more rows
…
feeder_fit_rs1 %>% collect_metrics(summarize = FALSE)
#> # A tibble: 40 × 5
#>   id     .metric     .estimator .estimate .config             
#>   <chr>  <chr>       <chr>          <dbl> <chr>               
#> 1 Fold01 accuracy    binary        0.808  Preprocessor1_Model1
#> 2 Fold01 sensitivity binary        0.996  Preprocessor1_Model1
#> 3 Fold01 specificity binary        0.0263 Preprocessor1_Model1
#> 4 Fold01 roc_auc     binary        0.661  Preprocessor1_Model1
#> 5 Fold02 accuracy    binary        0.805  Preprocessor1_Model1
#> 6 Fold02 sensitivity binary        0.996  Preprocessor1_Model1
#> # … with 34 more rows
feeder_fit_rs2 %>% collect_metrics(summarize = FALSE)
#> # A tibble: 40 × 5
#>   id     .metric     .estimator .estimate .config             
#>   <chr>  <chr>       <chr>          <dbl> <chr>               
#> 1 Fold01 accuracy    binary        0.814  Preprocessor1_Model1
#> 2 Fold01 sensitivity binary        0.991  Preprocessor1_Model1
#> 3 Fold01 specificity binary        0.0738 Preprocessor1_Model1
#> 4 Fold01 roc_auc     binary        0.701  Preprocessor1_Model1
#> 5 Fold02 accuracy    binary        0.809  Preprocessor1_Model1
#> 6 Fold02 sensitivity binary        0.991  Preprocessor1_Model1
#> # … with 34 more rows
…
