Chapter 3 Simple Linear Regression | Methods in Biostatistics
…
happy.lm %>% tidy()

## # A tibble: 2 x 5
##   term        estimate std.error statistic  p.value
##   <chr>          <dbl>     <dbl>     <dbl>    <dbl>
## 1 (Intercept)    28.2      2.28       12.4 2.76e-24
## 2 Happiness       6.69     0.375      17.8 5.78e-38

3.6.3 Ouptut

Some analyses will need the residuals, fitted values, or coefficients individually.

happy.lm %>% augment()

## # A tibble: 143 x 9
##    LifeExpectancy Happiness .fitted .se.fit  .resid    .hat .sigma .cooksd
##             <dbl>     <dbl>   <dbl>   <dbl>   <dbl>   <dbl>  <dbl>   <dbl>
##  1           76.2       5.5    65.0   0.537  11.2   0.00765   6.09 1.28e-2
##  2           71.7       5.6    65.7   0.527   6.00  0.00737   6.14 3.57e-3
##  3           41.7       4.3    57.0   0.796 -15.3   0.0168    6.02 5.39e-2
##  4           74.8       7.1    75.7   0.678  -0.944 0.0122    6.16 1.48e-4
##  5           71.7       5      61.7   0.619  10.0   0.0101    6.10 1.38e-2
##  6           80.9       7.9    81.1   0.904  -0.198 0.0216    6.16 1.18e-5
##  7           79.4       7.8    80.4   0.873  -1.03  0.0202    6.16 2.95e-4
##  8           67.1       5.3    63.7   0.564   3.40  0.00842   6.16 1.32e-3
##  9           63.1       5.3    63.7   0.564  -0.596 0.00842   6.16 4.04e-5
## 10           68.7       5.8    67.0   0.515   1.66  0.00705   6.16 2.60e-4
## # … with 133 more rows, and 1 more variable: .std.resid <dbl>
…
happy.lm %>% tidy(conf.int = TRUE)

## # A tibble: 2 x 7
##   term        estimate std.error statistic  p.value conf.low conf.high
##   <chr>          <dbl>     <dbl>     <dbl>    <dbl>    <dbl>     <dbl>
## 1 (Intercept)    28.2      2.28       12.4 2.76e-24    23.7      32.7 
## 2 Happiness       6.69     0.375      17.8 5.78e-38     5.95      7.43

3.6.3.1 Residuals in R

We skipped the residuals section, so you are not responsible for finding residuals in R, but the R code is here for completion in case you are interested:

happy.lm %>% augment()

## # A tibble: 143 x 9
##    LifeExpectancy Happiness .fitted .se.fit  .resid    .hat .sigma .cooksd
##             <dbl>     <dbl>   <dbl>   <dbl>   <dbl>   <dbl>  <dbl>   <dbl>
##  1           76.2       5.5    65.0   0.537  11.2   0.00765   6.09 1.28e-2
##  2           71.7       5.6    65.7   0.527   6.00  0.00737   6.14 3.57e-3
##  3           41.7       4.3    57.0   0.796 -15.3   0.0168    6.02 5.39e-2
##  4           74.8       7.1    75.7   0.678  -0.944 0.0122    6.16 1.48e-4
##  5           71.7       5      61.7   0.619  10.0   0.0101    6.10 1.38e-2
##  6           80.9       7.9    81.1   0.904  -0.198 0.0216    6.16 1.18e-5
##  7           79.4       7.8    80.4   0.873  -1.03  0.0202    6.16 2.95e-4
##  8           67.1       5.3    63.7   0.564   3.40  0.00842   6.16 1.32e-3
##  9           63.1       5.3    63.7   0.564  -0.596 0.00842   6.16 4.04e-5
## 10           68.7       5.8    67.0   0.515   1.66  0.00705   6.16 2.60e-4
## # … with 133 more rows, and 1 more variable: .std.resid <dbl>
…
