Chapter 6 Survival Analysis | Methods in Biostatistics
…
The HR in Table 7.4 are substantially smaller than those in Table 7.3. It is important to realize that the HR in Table 7.4 compare people of the same age, body mass index, and serum cholesterol, while those of Table 7.3 compare people without regard to other variables. It is not surprising that the unadjusted HR are inflated due to the confounding variables.

Goal: to predict CHD \(\rightarrow\) because it’s easier to measure blood pressure than cholesterol, we may just prefer to use the unadjusted model.

Goal: to establish a causal link \(\rightarrow\) we must adjust for all possible confounding variables.

When should we transform a continuous variable into a factor variable?

continuous If we believe that the relationship is linear in log(HR)

factor If the relationship is not linear. Although keep in mind that there can be lots of coefficients to estimate when we make factor variables, so we lose df.

coxph(Surv(followup,chdfate) ~ dbpf * sex + age + bmi + scl, data = heart) %>% tidy()
#> # A tibble: 16 x 5
#>   term        estimate std.error statistic   p.value
#>   <chr>          <dbl>     <dbl>     <dbl>     <dbl>
#> 1 dbpf60-70      0.415     0.352      1.18 0.238    
#> 2 dbpf70-80      0.503     0.343      1.47 0.142    
#> 3 dbpf80-90      0.648     0.344      1.89 0.0592   
#> 4 dbpf90-100     0.661     0.351      1.88 0.0599   
#> 5 dbpf100-110    1.13      0.363      3.12 0.00183  
#> 6 dbpfover110    1.66      0.377      4.40 0.0000107
#> # … with 10 more rows
…
