Foundations of Data Science in R – 9 Regular expressions
…
results |> 
  select(Task, Description, episode, contestant, score, series) |>
  head(10)

# A tibble: 10 × 6
  Task  Description                              episode contestant score series
  <chr> <chr>                                    <chr>   <chr>      <chr>  <dbl>
1 1     Prize: Best thing you can carry, but on… Episod… Charlotte… 1         11
2 1     Prize: Best thing you can carry, but on… Episod… Jamali Ma… 2         11
3 1     Prize: Best thing you can carry, but on… Episod… Lee Mack   4         11
4 1     Prize: Best thing you can carry, but on… Episod… Mike Wozn… 5         11
5 1     Prize: Best thing you can carry, but on… Episod… Sarah Ken… 3         11
6 2     Do the most impressive thing under the … Episod… Charlotte… 2         11
# ℹ 4 more rows
…
I want to extract just the air date. What pattern do I want to match?

str_extract("Episode 2: The pie whisperer. (4 August 2015)", ...)

str_extract("Episode 2: The pie whisperer. (4 August 2015)", 
            "(?<=\\().+(?=\\))")

[1] "4 August 2015"

Wrangling the episode info

Currently:

# A tibble: 270 × 1
  episode                                        
  <chr>                                          
1 Episode 1: It's not your fault. (18 March 2021)
2 Episode 1: It's not your fault. (18 March 2021)
3 Episode 1: It's not your fault. (18 March 2021)
4 Episode 1: It's not your fault. (18 March 2021)
5 Episode 1: It's not your fault. (18 March 2021)
6 Episode 1: It's not your fault. (18 March 2021)
# ℹ 264 more rows

One option:

results |>
  select(episode) |>
  mutate(episode_name = str_extract(episode, "(?<=: ).+(?=\\.)"),
         air_date = str_extract(episode, "(?<=\\().+(?=\\))"),
         episode = str_extract(episode, "\\d+"))

# A tibble: 270 × 3
  episode episode_name        air_date     
  <chr>   <chr>               <chr>        
1 1       It's not your fault 18 March 2021
2 1       It's not your fault 18 March 2021
3 1       It's not your fault 18 March 2021
4 1       It's not your fault 18 March 2021
5 1       It's not your fault 18 March 2021
6 1       It's not your fault 18 March 2021
# ℹ 264 more rows

Another option:

results |>
  separate_wider_regex(episode, 
                       patterns = c(".+ ", 
                                    episode = "\\d+", 
                                    ": ", 
                                    episode_name = ".+", 
                                    "\\. \\(", 
                                    air_date = ".+", 
                                    "\\)"))

# A tibble: 270 × 3
  episode episode_name        air_date     
  <chr>   <chr>               <chr>        
1 1       It's not your fault 18 March 2021
2 1       It's not your fault 18 March 2021
3 1       It's not your fault 18 March 2021
4 1       It's not your fault 18 March 2021
5 1       It's not your fault 18 March 2021
6 1       It's not your fault 18 March 2021
# ℹ 264 more rows
…
