Chapter 10 Misc | Computational Statistics
…
Similarly, we can explore the Subjects table.

Subject  %>% summarise(total = n())

## # Source:   lazy query [?? x 1]
## # Database: mysql 5.5.58-0ubuntu0.14.04.1-log
## #   [waiuser@scidb.smith.edu:/wai]
##   total
##   <dbl>
## 1   640

Subject %>% collect()  # be careful with collect() with large tables!

## # A tibble: 640 x 10
##    Identifier Sub_Number Session_Total   Age Female  Race Ethnicity
##    <chr>      <chr>              <int> <int>  <int> <int>     <int>
##  1 Voss_2010  1                      5    20      1     0         0
##  2 Voss_2010  2                      5    39      1     0         0
##  3 Voss_2010  3                      5    18      1     0         0
##  4 Voss_2010  4                      5    19      1     0         0
##  5 Voss_2010  5                      5    21      1     0         0
##  6 Voss_2010  6                      5    21      1     0         0
##  7 Voss_2010  7                      5    21      1     0         0
##  8 Voss_2010  8                      5    42      1     0         0
##  9 Voss_2010  9                      5    38      0     0         0
## 10 Voss_2010  10                     5    20      1     0         0
## # … with 630 more rows, and 3 more variables: Left_Ear_Status <int>,
## #   Right_Ear_Status <int>, Sub_Notes <chr>
…
