Chapter 4 Simulating | Computational Statistics
…
Using map(), the sum_unif() function is run reps number of times. Note that sum_unif() doesn’t have any arguments, so it doesn’t really matter what the form of the input is for sum_unif().

set.seed(4747)
reps <- 1000
 
sim_k_max <- data.frame(row_id = seq(1, reps, 1)) %>%
  mutate(max_for_EX = map(row_id, sum_unif)) %>%
  unnest(max_for_EX) %>%
  mutate(output = rep(c("k", "sum"), reps)) %>%
  pivot_wider(id_cols = row_id, names_from = output, 
              values_from = max_for_EX) 

sim_k_max

## # A tibble: 1,000 × 3
##    row_id     k   sum
##     <dbl> <dbl> <dbl>
##  1      1     2  1.05
##  2      2     2  1.68
##  3      3     1  1.39
##  4      4     1  1.47
##  5      5     2  1.03
##  6      6     1  1.45
##  7      7     1  1.41
##  8      8     1  1.83
##  9      9     1  1.17
## 10     10     2  1.42
## # … with 990 more rows
…
eqvar_data <- data.frame(row_id = seq(1, n_obs, 1)) %>%
  slice(rep(row_id, each = reps)) %>%
  mutate(
    sim_id = rep(1:reps, n_obs),
    x1 = rep(c(0,1), each = n()/2),
    x2 = runif(n(), min = -1, max = 1),
    y = beta0 + beta1*x1 + beta2*x2 + rnorm(n(), mean = 0, sd = 1)
  ) %>%
  arrange(sim_id, row_id) %>%
  group_by(sim_id) %>%
  nest()

eqvar_data

## # A tibble: 1,000 × 2
## # Groups:   sim_id [1,000]
##    sim_id data              
##     <int> <list>            
##  1      1 <tibble [100 × 4]>
##  2      2 <tibble [100 × 4]>
##  3      3 <tibble [100 × 4]>
##  4      4 <tibble [100 × 4]>
##  5      5 <tibble [100 × 4]>
##  6      6 <tibble [100 × 4]>
##  7      7 <tibble [100 × 4]>
##  8      8 <tibble [100 × 4]>
##  9      9 <tibble [100 × 4]>
## 10     10 <tibble [100 × 4]>
## # … with 990 more rows
…
uneqvar_data

## # A tibble: 1,000 × 2
## # Groups:   sim_id [1,000]
##    sim_id data              
##     <int> <list>            
##  1      1 <tibble [100 × 4]>
##  2      2 <tibble [100 × 4]>
##  3      3 <tibble [100 × 4]>
##  4      4 <tibble [100 × 4]>
##  5      5 <tibble [100 × 4]>
##  6      6 <tibble [100 × 4]>
##  7      7 <tibble [100 × 4]>
##  8      8 <tibble [100 × 4]>
##  9      9 <tibble [100 × 4]>
## 10     10 <tibble [100 × 4]>
## # … with 990 more rows
…
