Chapter 9 Unsupervised Methods | Computational Statistics
…
The function augment works at the observation level:

penguin_kclust %>% augment(penguins_km)

## # A tibble: 342 × 5
##    bill_length_mm[,1] bill_depth_mm[,… flipper_length_… body_mass_g[,1] .cluster
##                 <dbl>            <dbl>            <dbl>           <dbl> <fct>   
##  1             -0.883           0.784            -1.42          -0.563  1       
##  2             -0.810           0.126            -1.06          -0.501  1       
##  3             -0.663           0.430            -0.421         -1.19   1       
##  4             -1.32            1.09             -0.563         -0.937  1       
##  5             -0.847           1.75             -0.776         -0.688  1       
##  6             -0.920           0.329            -1.42          -0.719  1       
##  7             -0.865           1.24             -0.421          0.590  1       
##  8             -1.80            0.480            -0.563         -0.906  1       
##  9             -0.352           1.54             -0.776          0.0602 3       
## 10             -1.12           -0.0259           -1.06          -1.12   1       
## # … with 332 more rows
…
